<?xml version="1.0" standalone="no"?>
<!DOCTYPE svg PUBLIC "-//W3C//DTD SVG 20010904//EN"
 "http://www.w3.org/TR/2001/REC-SVG-20010904/DTD/svg10.dtd">
<svg version="1.0" xmlns="http://www.w3.org/2000/svg"
 width="1905.000000pt" height="994.000000pt" viewBox="0 0 1905.000000 994.000000"
 preserveAspectRatio="xMidYMid meet">

<g transform="translate(0.000000,994.000000) scale(0.100000,-0.100000)"
fill="#000000" stroke="none">
<path d="M18430 9665 c0 -13 23 -15 150 -15 127 0 150 2 150 15 0 13 -23 15
-150 15 -127 0 -150 -2 -150 -15z"/>
<path d="M18430 9580 c0 -19 7 -20 150 -20 143 0 150 1 150 20 0 19 -7 20
-150 20 -143 0 -150 -1 -150 -20z"/>
<path d="M18430 9495 c0 -13 23 -15 150 -15 127 0 150 2 150 15 0 13 -23 15
-150 15 -127 0 -150 -2 -150 -15z"/>
<path d="M6505 6876 c-123 -47 -256 -162 -269 -232 -5 -26 -16 -38 -52 -58
-47 -26 -64 -26 -64 0 0 19 -16 18 -24 -1 -3 -8 -1 -15 5 -15 6 0 7 -5 4 -11
-4 -5 -17 -9 -28 -7 -29 3 -47 -9 -47 -33 0 -11 -5 -17 -10 -14 -6 4 -8 11 -5
16 4 5 -6 9 -21 9 l-28 0 24 22 c16 15 19 23 11 26 -8 3 -17 -2 -22 -9 -6 -11
-9 -10 -15 4 -4 12 0 23 12 32 11 7 17 16 14 19 -3 3 -19 -7 -35 -23 -17 -15
-37 -26 -45 -24 -12 3 -12 1 1 -9 9 -7 18 -22 21 -33 2 -14 11 -20 32 -20 24
0 29 -5 32 -27 3 -32 -7 -35 -31 -11 -16 16 -18 16 -27 -1 -7 -13 -13 -15 -23
-6 -18 15 -40 3 -26 -13 10 -13 10 -67 -1 -67 -4 0 -11 6 -15 14 -9 16 -63 11
-63 -6 0 -5 6 -6 13 -2 9 5 9 4 0 -6 -16 -18 -35 -2 -27 23 6 20 6 20 -10 4
-18 -18 -62 -24 -51 -8 15 25 -79 12 -96 -12 -4 -5 -9 -5 -13 1 -8 14 4 43 16
36 5 -3 8 7 6 23 -3 24 0 28 22 28 20 0 25 5 26 26 1 19 -3 26 -12 22 -7 -3
-12 -10 -11 -16 1 -6 -7 -12 -18 -14 -11 -1 -14 0 -7 3 14 7 16 34 2 34 -5 0
-10 9 -10 20 0 10 -9 24 -20 30 -14 7 -20 7 -20 0 0 -5 5 -10 10 -10 13 0 13
-27 1 -34 -5 -4 -21 -2 -36 4 -24 9 -26 8 -20 -7 4 -10 12 -31 17 -48 6 -16
15 -35 20 -42 5 -7 5 -14 -2 -18 -5 -3 -10 0 -10 7 0 16 -66 48 -96 48 -13 0
-8 -7 18 -22 54 -31 57 -48 8 -45 -27 1 -39 6 -35 15 2 6 2 12 -1 12 -9 0 -49
-53 -49 -64 0 -16 -22 -18 -28 -2 -4 9 1 17 12 21 19 6 48 51 39 61 -12 11
-47 -16 -42 -31 5 -11 -1 -15 -17 -14 -13 0 -18 3 -11 6 20 8 14 25 -7 18 -13
-4 -20 -1 -23 11 -2 11 -31 -12 -97 -77 -57 -57 -88 -95 -80 -97 8 -2 20 -11
27 -20 11 -14 12 -14 12 2 0 24 25 14 26 -10 1 -28 -16 -45 -37 -39 -14 5 -19
1 -19 -14 0 -27 -17 -35 -23 -11 -3 11 1 23 8 28 7 4 16 18 20 32 6 20 5 23
-6 13 -7 -7 -17 -13 -22 -13 -4 0 -5 6 -1 13 4 6 -2 4 -14 -7 -12 -10 -19 -23
-16 -27 3 -5 -1 -9 -9 -9 -15 0 -57 -52 -57 -71 0 -6 -8 -18 -17 -25 -13 -9
-14 -13 -4 -14 7 0 11 -6 7 -15 -8 -22 12 -18 24 5 13 24 42 28 33 4 -5 -13
-2 -15 15 -10 12 4 27 4 34 0 9 -6 5 -10 -12 -14 -14 -3 -30 -16 -36 -29 -7
-14 -14 -19 -18 -12 -13 21 -26 11 -20 -14 5 -19 2 -25 -11 -25 -10 0 -14 5
-10 13 4 6 -3 1 -14 -13 -11 -14 -21 -29 -21 -34 0 -5 -12 1 -26 15 -23 20
-25 21 -17 4 12 -24 7 -43 -20 -72 -12 -14 -18 -30 -14 -44 3 -11 3 -19 0 -16
-2 3 -18 1 -33 -5 -19 -6 -27 -15 -23 -24 3 -8 -1 -14 -10 -14 -9 0 -29 -37
-55 -102 -52 -133 -66 -179 -97 -315 -29 -129 -31 -153 -10 -153 9 0 12 -6 8
-16 -3 -8 -11 -13 -18 -10 -16 6 -26 -105 -24 -259 1 -97 3 -113 22 -133 18
-20 19 -24 7 -32 -22 -14 -21 -50 1 -50 23 0 24 -7 4 -26 -17 -17 -20 -54 -6
-54 5 0 8 -18 6 -40 -2 -22 1 -40 6 -40 6 0 8 -4 5 -8 -3 -5 1 -20 9 -35 8
-15 10 -27 4 -27 -6 0 -7 -5 -4 -10 4 -6 11 -8 16 -5 5 4 9 2 9 -4 0 -5 -4
-11 -10 -13 -6 -2 -6 -17 1 -43 22 -84 41 -123 63 -129 19 -6 20 -7 4 -19 -15
-12 -14 -19 16 -89 33 -81 46 -102 46 -75 0 19 33 39 52 32 7 -3 21 -19 31
-37 14 -25 15 -29 2 -18 -8 7 -18 10 -21 8 -3 -3 14 -21 36 -41 23 -19 37 -38
31 -41 -11 -7 -4 -36 10 -36 4 0 6 6 3 14 -8 22 12 28 31 10 13 -13 14 -19 4
-25 -8 -4 -10 -11 -6 -15 4 -4 14 1 22 12 14 18 16 18 29 2 7 -10 19 -18 25
-18 7 0 23 -11 37 -25 13 -13 34 -30 47 -36 12 -7 38 -25 58 -40 20 -16 44
-29 53 -29 9 0 20 -8 23 -17 8 -21 35 -43 45 -37 3 2 28 -7 55 -21 26 -13 40
-25 31 -25 -10 0 -18 -4 -18 -10 0 -5 7 -7 15 -4 9 4 15 0 15 -10 0 -8 6 -14
13 -12 6 1 9 1 5 -1 -5 -3 -8 -13 -8 -24 0 -17 3 -18 20 -9 17 9 20 8 20 -12
0 -28 9 -42 31 -50 9 -4 24 -20 32 -37 16 -33 9 -41 -36 -41 -20 0 -20 0 -2
-14 16 -12 23 -12 38 -1 21 14 26 12 67 -29 20 -19 28 -66 12 -66 -18 0 -62
26 -62 37 0 7 -9 10 -21 8 -26 -5 -67 25 -61 44 3 9 -1 11 -14 7 -14 -4 -22 1
-31 19 -9 21 -9 25 4 25 8 0 11 -5 7 -12 -9 -15 53 -3 74 14 12 10 11 13 -5
19 -10 4 -32 5 -49 2 -20 -3 -43 2 -67 16 l-37 21 0 -25 c0 -14 9 -34 20 -45
l20 -20 -20 0 c-12 0 -39 9 -61 20 -33 17 -38 24 -30 39 10 18 6 31 -10 31 -4
0 -9 -8 -12 -17 -3 -16 -5 -16 -12 2 -32 86 -55 122 -65 106 -3 -6 -14 3 -24
21 -11 17 -14 28 -7 24 6 -4 11 -1 11 8 0 9 -7 16 -15 16 -8 0 -15 5 -15 10 0
6 -7 10 -15 10 -8 0 -15 9 -15 20 0 11 -4 20 -10 20 -5 0 -10 7 -10 15 0 8 7
15 16 15 10 0 14 6 10 15 -3 8 0 15 6 15 6 0 8 3 5 7 -8 7 -41 -25 -48 -45 -3
-9 -11 -6 -27 8 -13 12 -29 19 -37 16 -8 -3 -24 4 -37 15 -17 15 -18 19 -5 15
9 -3 17 -2 17 3 0 5 -9 11 -21 14 -11 3 -23 15 -26 26 -3 12 -14 21 -25 21
-12 0 -23 11 -29 30 -6 17 -14 30 -18 30 -3 0 -12 13 -19 30 -8 17 -18 30 -23
30 -5 0 7 -31 28 -70 25 -46 44 -70 58 -72 11 -2 21 -11 23 -20 3 -14 -1 -16
-14 -11 -39 15 24 -62 68 -83 24 -12 50 -30 58 -40 8 -10 10 -15 4 -11 -12 7
-29 -21 -19 -31 3 -3 5 0 5 6 0 17 27 15 34 -3 3 -9 0 -15 -9 -15 -7 0 -17 -5
-21 -12 -7 -11 10 -9 49 7 10 4 17 3 17 -3 0 -6 -9 -14 -20 -17 -11 -3 -20
-10 -20 -15 0 -6 10 -6 24 0 27 10 33 5 85 -72 21 -31 27 -48 18 -48 -7 0 -17
3 -23 8 -5 4 10 -12 33 -35 24 -24 50 -43 58 -43 9 0 12 -6 9 -15 -4 -10 0
-15 15 -15 13 0 19 -5 15 -14 -3 -7 2 -16 10 -19 10 -4 16 -1 16 8 0 21 17 19
37 -4 9 -11 22 -17 29 -14 18 7 117 -39 103 -48 -6 -3 -20 -4 -31 -1 -15 3
-19 1 -16 -9 5 -15 58 -26 58 -11 0 10 51 9 68 -2 6 -3 9 -13 5 -22 -3 -10 -9
-11 -17 -5 -17 14 -98 11 -93 -3 2 -6 17 -10 33 -8 28 2 28 2 9 -14 -20 -16
-20 -16 1 -10 17 5 22 3 20 -10 0 -9 11 -24 26 -33 91 -55 157 -90 183 -97 17
-4 41 -16 55 -26 59 -43 351 -135 394 -124 12 3 57 39 100 81 44 41 83 75 88
75 4 0 33 22 63 50 30 27 81 63 114 80 65 32 92 58 38 35 -19 -8 -37 -11 -41
-8 -3 4 -6 2 -6 -4 0 -5 -11 -15 -25 -21 -21 -10 -23 -9 -18 6 6 15 4 15 -15
-2 -12 -11 -22 -15 -22 -9 0 13 37 45 84 72 26 15 64 24 110 28 66 6 77 10
159 65 48 33 87 64 87 69 0 5 -10 13 -22 18 -13 5 -39 24 -58 43 -19 18 -54
42 -77 52 -27 12 -40 23 -36 32 3 8 9 12 13 9 4 -3 10 10 12 29 3 24 0 32 -9
29 -31 -12 -9 19 43 60 46 36 67 46 111 51 30 3 67 13 81 20 15 8 70 17 123
21 95 7 96 7 116 -19 32 -41 70 -43 123 -7 25 17 51 31 58 31 7 0 37 9 66 19
47 16 65 18 142 9 49 -5 100 -7 113 -5 l25 5 -25 -19 -24 -19 28 0 c15 0 60
14 100 31 62 27 195 62 215 57 4 -1 17 1 30 6 27 9 29 36 2 37 -11 1 -24 3
-30 4 -5 1 -29 4 -52 5 -34 2 -37 4 -13 6 68 8 225 50 225 60 0 30 -162 25
-234 -5 -27 -12 -50 -20 -51 -19 -2 2 21 43 51 91 49 81 76 118 140 188 78 87
246 79 304 -16 12 -19 30 -63 40 -97 l18 -63 12 30 c40 101 53 141 79 240 49
188 65 310 65 519 0 173 -1 189 -19 202 -10 8 -13 14 -7 14 7 0 12 15 12 35 0
25 -4 35 -15 35 -9 0 -21 11 -27 25 -18 41 -30 29 -26 -27 2 -29 -1 -53 -7
-55 -6 -2 -9 12 -8 34 20 295 15 356 -36 456 l-20 39 -4 -34 c-2 -22 -4 -15
-5 22 -2 38 -10 71 -28 105 -15 28 -38 73 -51 100 -36 72 -120 198 -193 290
-93 116 -230 255 -251 255 -11 0 -19 6 -19 13 0 28 -207 174 -365 257 l-100
53 -6 -64 c-6 -74 -2 -92 19 -84 18 7 46 -21 54 -53 6 -22 -6 -31 -17 -12 -4
6 -11 7 -17 4 -6 -4 -18 3 -27 15 -15 20 -16 15 -13 -80 2 -88 0 -103 -15
-114 -12 -9 -23 -10 -35 -4 -22 12 -23 1 -2 -22 9 -10 13 -23 9 -30 -6 -8 -13
-5 -26 12 l-19 24 0 -31 c0 -17 7 -37 15 -44 20 -17 19 -27 -4 -33 -16 -4 -20
1 -23 26 -4 38 -28 49 -28 13 0 -28 -6 -31 -30 -16 -13 9 -13 11 0 20 13 9 7
14 -12 11 -15 -2 -8 18 10 28 15 9 15 10 -5 11 -16 0 -23 6 -23 18 0 15 -6 18
-30 14 -21 -3 -30 -10 -30 -23 0 -20 -25 -37 -37 -25 -3 3 -9 36 -13 73 -16
151 -54 237 -136 312 -89 81 -186 124 -324 141 -104 12 -186 11 -225 -4z
m1191 -309 c-5 -30 -3 -44 10 -58 10 -11 12 -19 7 -19 -6 0 -17 10 -25 22
l-14 21 -22 -23 c-21 -23 -22 -23 -22 -3 0 23 33 56 45 46 5 -5 4 0 -4 9 -9
13 -10 22 -1 38 17 32 33 13 26 -33z m77 16 c-6 -43 -22 -68 -24 -37 -3 42 6
74 20 74 6 0 7 -16 4 -37z m-1560 -36 c-8 -44 -22 -55 -58 -46 -28 6 -28 7 -5
8 16 1 20 4 13 9 -9 5 -5 17 13 40 30 38 46 34 37 -11z m1612 23 c3 -6 -1 -13
-10 -16 -19 -8 -30 0 -20 15 8 14 22 14 30 1z m-864 -21 c3 -6 12 -7 21 -4 9
4 30 -9 55 -33 55 -54 82 -143 98 -325 7 -78 13 -126 14 -107 3 32 3 33 10 10
5 -20 6 -70 2 -112 -1 -3 -12 -19 -24 -35 -13 -15 -32 -50 -42 -76 -12 -31
-23 -46 -31 -43 -8 3 -17 0 -21 -7 -5 -7 -17 -19 -27 -27 -19 -15 -19 -15 0
15 10 17 21 32 24 35 6 5 30 94 30 110 0 6 -8 10 -19 10 -10 0 -24 7 -31 15
-7 8 -19 15 -28 15 -8 0 -42 25 -74 56 -32 31 -62 53 -65 50 -4 -3 -1 -12 5
-18 7 -7 12 -20 12 -30 0 -16 -9 -18 -68 -18 -37 0 -72 4 -78 10 -5 5 -27 12
-49 15 -21 2 -43 9 -48 14 -15 15 0 41 25 41 15 0 19 3 12 10 -14 14 -74 -7
-74 -25 0 -7 -20 -21 -45 -31 -44 -16 -49 -16 -103 0 -31 10 -67 19 -80 20
-12 1 -34 13 -48 25 -15 13 -34 21 -45 18 -12 -3 -19 0 -19 10 0 8 3 12 8 10
4 -3 8 10 9 29 3 59 44 167 80 208 18 22 38 56 43 77 6 20 19 48 30 62 18 23
27 26 66 23 24 -2 50 -9 58 -15 10 -8 17 -6 31 9 10 11 21 17 26 15 4 -3 10
-1 14 5 8 12 338 2 346 -11z m621 -24 c-5 -31 -22 -44 -22 -18 0 15 17 43 26
43 1 0 -1 -11 -4 -25z m-1485 -30 c-4 -8 -2 -17 2 -20 5 -3 7 -14 4 -26 -5
-19 -4 -20 14 -8 13 8 19 20 16 33 -4 21 -4 21 11 2 11 -14 13 -22 5 -27 -8
-4 -6 -15 6 -33 12 -17 13 -26 5 -26 -6 0 -14 9 -17 20 -6 24 -11 25 -35 3
-19 -17 -24 -43 -8 -43 6 0 10 -7 10 -15 0 -21 16 -19 33 5 14 21 15 20 19 -5
6 -27 -6 -44 -16 -23 -5 10 -7 10 -12 0 -5 -10 -9 -10 -21 -1 -11 10 -20 9
-43 -4 -15 -10 -35 -14 -44 -11 -18 7 -22 24 -6 24 6 0 10 7 10 15 0 9 6 18
14 21 8 3 13 15 11 26 -3 12 3 27 13 34 10 8 12 13 5 14 -26 0 -5 58 21 60 4
0 6 -7 3 -15z m1743 -19 c-5 -5 -16 -6 -25 -2 -14 5 -15 9 -5 21 9 11 15 12
25 2 7 -7 10 -16 5 -21z m-63 2 c-3 -8 -6 -5 -6 6 -1 11 2 17 5 13 3 -3 4 -12
1 -19z m-144 -28 c3 -13 0 -20 -9 -20 -8 0 -14 9 -14 20 0 11 4 20 9 20 5 0
11 -9 14 -20z m-73 -11 c0 -6 -4 -7 -10 -4 -5 3 -10 11 -10 16 0 6 5 7 10 4 6
-3 10 -11 10 -16z m-1570 7 c0 -3 -4 -8 -10 -11 -5 -3 -10 -1 -10 4 0 6 5 11
10 11 6 0 10 -2 10 -4z m1610 -16 c0 -5 -2 -10 -4 -10 -3 0 -8 5 -11 10 -3 6
-1 10 4 10 6 0 11 -4 11 -10z m130 -11 c0 -5 -4 -9 -10 -9 -5 0 -10 7 -10 16
0 8 5 12 10 9 6 -3 10 -10 10 -16z m95 -9 c-3 -5 -11 -10 -16 -10 -6 0 -7 5
-4 10 3 6 11 10 16 10 6 0 7 -4 4 -10z m-2275 -21 c0 -6 -4 -7 -10 -4 -5 3
-10 11 -10 16 0 6 5 7 10 4 6 -3 10 -11 10 -16z m60 17 c0 -2 -7 -6 -15 -10
-8 -3 -15 -1 -15 4 0 6 7 10 15 10 8 0 15 -2 15 -4z m-140 -17 c0 -5 -6 -7
-12 -3 -7 4 -4 -2 6 -14 19 -22 19 -22 -2 -22 -12 0 -22 -5 -22 -12 0 -9 -3
-9 -11 -1 -9 9 -8 18 5 37 17 27 36 34 36 15z m570 1 c0 -5 -2 -10 -4 -10 -3
0 -8 5 -11 10 -3 6 -1 10 4 10 6 0 11 -4 11 -10z m1449 -35 c0 -5 -4 -3 -9 5
-5 8 -9 22 -9 30 0 16 17 -16 18 -35z m-1724 25 c-3 -5 -14 -10 -23 -10 -15 0
-15 2 -2 10 20 13 33 13 25 0z m215 -18 c0 -15 5 -33 11 -39 6 -6 9 -17 7 -23
-4 -14 -31 8 -41 32 -4 9 -8 9 -14 3 -4 -5 -16 -16 -25 -23 -15 -12 -17 -10
-15 27 1 23 2 41 3 41 2 0 15 -5 29 -10 23 -9 26 -8 21 5 -3 9 0 15 9 15 10 0
15 -10 15 -28z m1690 7 c0 -14 -37 -10 -43 4 -4 10 2 13 19 9 13 -2 24 -8 24
-13z m36 -6 c-10 -10 -19 5 -10 18 6 11 8 11 12 0 2 -7 1 -15 -2 -18z m-1822
-33 c-7 -6 -24 22 -23 40 0 9 6 5 14 -10 7 -14 11 -27 9 -30z m-584 20 c0 -5
-4 -10 -9 -10 -6 0 -13 5 -16 10 -3 6 1 10 9 10 9 0 16 -4 16 -10z m475 -10
c-3 -5 -11 -10 -16 -10 -6 0 -7 5 -4 10 3 6 11 10 16 10 6 0 7 -4 4 -10z
m1948 3 c4 -3 1 -13 -6 -21 -14 -17 -17 -175 -4 -262 l8 -55 -19 22 c-17 20
-22 21 -32 8 -12 -14 -40 -21 -40 -10 0 4 7 19 15 36 11 20 13 35 6 47 -6 11
-6 24 0 33 5 7 9 10 9 5 0 -11 30 14 30 25 0 5 -12 9 -26 9 -24 0 -25 3 -19
28 5 15 8 36 8 47 1 11 9 26 19 33 10 7 17 23 17 35 -1 17 -2 18 -6 5 -3 -11
-14 -18 -30 -18 -15 0 -23 5 -21 12 7 19 77 36 91 21z m-246 -35 c-3 -8 -6 -5
-6 6 -1 11 2 17 5 13 3 -3 4 -12 1 -19z m-1384 -8 c-3 -11 -9 -20 -14 -20 -10
0 -12 24 -2 33 13 13 21 7 16 -13z m1505 8 c-3 -7 -11 -13 -18 -13 -7 0 -15 6
-17 13 -3 7 4 12 17 12 13 0 20 -5 18 -12z m-2168 -10 c0 -22 -17 -41 -24 -29
-4 6 -11 9 -16 6 -5 -3 -12 0 -16 6 -5 8 1 10 20 7 20 -4 26 -2 22 8 -3 8 -1
14 4 14 6 0 10 -6 10 -12z m58 -2 c-13 -14 -28 -12 -28 5 0 5 9 9 20 9 17 0
19 -2 8 -14z m2239 -38 c-2 -13 -4 -5 -4 17 -1 22 1 32 4 23 2 -10 2 -28 0
-40z m-1555 -23 c21 37 22 33 4 -26 -9 -30 -11 -51 -5 -62 8 -13 6 -15 -6 -11
-19 8 -20 -10 -1 -25 11 -10 16 -8 24 6 17 29 24 8 7 -23 -13 -25 -13 -31 0
-51 20 -30 19 -44 -2 -36 -43 15 -53 39 -53 126 0 51 -5 88 -12 95 -9 9 -9 12
0 12 7 0 13 15 14 33 1 23 3 18 7 -18 l6 -50 17 30z m-285 38 c3 -9 -8 -10
-35 -4 -2 1 0 6 3 12 8 12 27 7 32 -8z m1588 -13 c-7 -24 -35 -24 -43 0 -4 12
-3 13 10 2 13 -10 16 -9 21 10 4 12 9 19 13 16 3 -4 3 -16 -1 -28z m-245 10
c0 -5 -2 -10 -4 -10 -3 0 -8 5 -11 10 -3 6 -1 10 4 10 6 0 11 -4 11 -10z
m-1890 -10 c0 -5 -9 -10 -21 -10 -11 0 -17 5 -14 10 3 6 13 10 21 10 8 0 14
-4 14 -10z m251 -26 c14 -37 6 -39 -15 -4 -10 17 -13 30 -6 30 6 0 15 -12 21
-26z m-181 6 c0 -5 -5 -10 -11 -10 -5 0 -7 5 -4 10 3 6 8 10 11 10 2 0 4 -4 4
-10z m1903 3 c-7 -2 -19 -2 -25 0 -7 3 -2 5 12 5 14 0 19 -2 13 -5z m264 -40
c-3 -10 -5 -2 -5 17 0 19 2 27 5 18 2 -10 2 -26 0 -35z m-164 24 c4 3 7 -6 7
-20 0 -15 5 -27 12 -27 6 0 9 -3 5 -6 -10 -10 -64 40 -59 54 3 9 8 10 16 3 7
-6 16 -8 19 -4z m404 -19 c-3 -7 -5 -2 -5 12 0 14 2 19 5 13 2 -7 2 -19 0 -25z
m-90 -45 c-2 -16 -4 -5 -4 22 0 28 2 40 4 28 2 -13 2 -35 0 -50z m-517 47 c0
-5 -2 -10 -4 -10 -3 0 -8 5 -11 10 -3 6 -1 10 4 10 6 0 11 -4 11 -10z m-1741
-22 c12 -15 11 -18 -3 -18 -10 0 -16 8 -16 22 0 12 1 19 3 17 1 -2 9 -12 16
-21z m1860 -46 c1 -19 -3 -23 -21 -20 -13 2 -22 9 -20 17 3 12 0 12 -14 0 -16
-12 -17 -12 -11 4 4 10 7 23 7 29 0 6 7 8 14 5 10 -4 18 2 22 16 7 22 8 22 15
-3 4 -14 7 -35 8 -48z m131 64 c0 -3 -4 -8 -10 -11 -5 -3 -10 -1 -10 4 0 6 5
11 10 11 6 0 10 -2 10 -4z m-2032 -31 c-3 -3 -9 2 -12 12 -6 14 -5 15 5 6 7
-7 10 -15 7 -18z m288 0 c10 -8 14 -15 8 -15 -5 0 -19 7 -30 15 -10 8 -14 15
-8 15 5 0 19 -7 30 -15z m287 1 c4 -10 1 -13 -9 -9 -15 6 -19 23 -5 23 5 0 11
-7 14 -14z m-583 -33 c0 -9 -1 -14 -3 -12 -1 2 -11 15 -22 28 l-20 24 23 -12
c12 -6 22 -19 22 -28z m697 11 c-9 -9 -28 6 -21 18 4 6 10 6 17 -1 6 -6 8 -13
4 -17z m1296 -31 c-6 -16 9 -17 25 -1 9 9 12 8 12 -5 0 -9 -7 -17 -15 -17 -8
0 -15 -4 -15 -10 0 -5 5 -10 10 -10 6 0 10 -4 10 -10 0 -5 -7 -7 -16 -3 -9 3
-20 0 -25 -8 -7 -12 -9 -12 -10 1 -5 47 -7 58 -13 69 -4 7 -2 18 4 27 11 12
14 12 25 -3 7 -9 11 -23 8 -30z m157 37 c0 -5 -4 -10 -10 -10 -5 0 -10 5 -10
10 0 6 5 10 10 10 6 0 10 -4 10 -10z m676 -25 c-7 -20 -36 -19 -36 1 0 10 6
14 15 10 10 -3 15 1 16 12 0 11 2 12 6 4 3 -7 2 -19 -1 -27z m-2674 1 c17 -23
16 -24 -2 -29 -24 -6 -30 0 -30 30 0 29 10 29 32 -1z m1672 -19 c-8 -37 -19
-47 -45 -40 -25 7 -24 13 6 42 14 13 25 27 25 33 0 5 5 6 11 3 6 -4 7 -20 3
-38z m-1884 23 c0 -5 -2 -10 -4 -10 -3 0 -8 5 -11 10 -3 6 -1 10 4 10 6 0 11
-4 11 -10z m134 -11 c-3 -5 -9 -7 -14 -4 -5 3 -11 1 -15 -5 -3 -5 -12 -10 -18
-10 -7 1 -1 9 12 20 22 19 47 18 35 -1z m-314 1 c0 -5 -2 -10 -4 -10 -3 0 -8
5 -11 10 -3 6 -1 10 4 10 6 0 11 -4 11 -10z m680 -5 c0 -8 -4 -15 -9 -15 -5 0
-11 7 -15 15 -3 9 0 15 9 15 8 0 15 -7 15 -15z m239 -11 c6 4 11 3 11 -2 0 -5
-9 -12 -20 -15 -15 -4 -20 0 -20 16 0 17 2 19 9 8 5 -7 14 -10 20 -7z m1408
-16 c-3 -8 -6 -5 -6 6 -1 11 2 17 5 13 3 -3 4 -12 1 -19z m-2157 -8 c0 -5 -7
-7 -15 -4 -8 4 -15 8 -15 10 0 2 7 4 15 4 8 0 15 -4 15 -10z m438 -8 c2 -7 -2
-10 -12 -6 -9 3 -16 11 -16 16 0 13 23 5 28 -10z m1574 -19 c-6 -3 -10 -9 -6
-14 9 -15 -13 -10 -26 6 -10 12 -9 16 4 21 9 3 13 11 10 18 -4 6 2 3 12 -8 14
-13 15 -20 6 -23z m-1515 0 c-3 -3 -11 -2 -17 2 -9 6 -9 10 1 16 14 8 27 -7
16 -18z m-543 -15 c11 -42 7 -55 -9 -34 -16 22 -20 56 -6 56 5 0 11 -10 15
-22z m37 -8 c5 0 9 -15 9 -32 l-1 -33 -14 25 c-8 14 -14 36 -13 50 0 17 2 19
5 8 2 -10 9 -18 14 -18z m-171 16 c0 -3 -4 -8 -10 -11 -5 -3 -10 -1 -10 4 0 6
5 11 10 11 6 0 10 -2 10 -4z m97 -33 c3 -8 1 -24 -5 -36 -9 -18 -11 -19 -11
-4 -1 9 -7 16 -13 15 -7 -2 -12 3 -10 10 1 6 -2 12 -8 12 -5 0 -10 4 -10 9 0
14 51 9 57 -6z m1973 -3 c0 -11 -4 -20 -9 -20 -11 0 -22 26 -14 34 12 12 23 5
23 -14z m947 -17 c-3 -10 -5 -4 -5 12 0 17 2 24 5 18 2 -7 2 -21 0 -30z
m-2997 12 c-11 -13 -10 -14 4 -9 9 3 16 1 16 -5 0 -6 -4 -11 -9 -11 -5 0 -16
-3 -25 -6 -19 -7 -22 16 -4 34 17 17 33 15 18 -3z m2020 -11 c6 -14 10 -29 10
-34 0 -10 -27 -7 -37 5 -4 4 -2 5 5 1 8 -5 12 0 12 13 0 12 -3 20 -7 20 -17
-3 -24 2 -18 11 11 17 25 11 35 -16z m110 6 c0 -5 -4 -10 -10 -10 -5 0 -10 5
-10 10 0 6 5 10 10 10 6 0 10 -4 10 -10z m-1149 -38 c-13 -4 -41 16 -41 29 0
5 12 2 26 -8 15 -9 21 -19 15 -21z m727 -9 c11 -26 18 -51 16 -55 -3 -4 -27 3
-54 17 -27 14 -64 25 -82 25 -45 0 -108 11 -108 19 0 3 30 6 68 6 42 0 78 6
97 17 42 22 40 23 63 -29z m-1408 22 c10 -12 10 -15 -3 -15 -8 0 -20 7 -27 15
-10 12 -10 15 3 15 8 0 20 -7 27 -15z m1150 1 c0 -8 -14 -16 -32 -20 -37 -7
-44 -3 -25 16 18 18 57 21 57 4z m1090 -5 c0 -27 -11 -52 -19 -46 -10 6 -1 65
10 65 5 0 9 -9 9 -19z m-60 -15 c0 -13 6 -27 13 -29 6 -3 0 -6 -14 -6 -29 -1
-45 29 -26 48 18 18 27 13 27 -13z m-2447 -6 c4 -15 0 -20 -14 -20 -17 0 -18
3 -9 20 6 11 12 20 14 20 2 0 6 -9 9 -20z m257 -19 c13 -11 10 -13 -17 -9 -20
3 -33 0 -34 -6 0 -7 -3 -6 -5 1 -3 7 0 22 7 34 10 19 13 20 23 8 7 -8 18 -20
26 -28z m1880 1 c0 -12 -4 -12 -20 3 -19 17 -20 17 -20 0 0 -14 -3 -16 -11 -8
-7 7 -9 19 -6 27 5 13 11 14 32 4 14 -6 25 -18 25 -26z m40 23 c7 -8 9 -15 6
-15 -4 0 -14 7 -22 15 -9 8 -11 15 -6 15 5 0 15 -7 22 -15z m-2280 -5 c0 -5 8
-10 18 -10 9 0 28 -9 42 -20 18 -14 28 -16 38 -8 15 13 27 4 17 -11 -3 -6 -27
-11 -52 -11 -45 0 -45 0 -41 -30 5 -36 -1 -38 -26 -8 -19 21 -18 22 10 44 31
25 30 28 -4 39 -19 5 -25 2 -29 -14 -6 -23 -11 -25 -32 -12 -17 11 -6 29 23
41 29 12 36 12 36 0z m273 -21 c-7 -26 -32 -36 -44 -18 -13 20 -11 23 14 35
29 13 36 9 30 -17z m1827 -29 c13 -31 7 -52 -9 -34 -5 5 -12 24 -16 43 -9 41
7 35 25 -9z m70 30 c0 -5 -7 -7 -15 -4 -8 4 -15 8 -15 10 0 2 7 4 15 4 8 0 15
-4 15 -10z m950 -31 c0 -20 -4 -29 -12 -27 -15 5 -22 33 -14 54 9 24 26 6 26
-27z m-2961 5 c3 -16 1 -17 -13 -5 -19 16 -21 34 -3 29 6 -3 14 -13 16 -24z
m1206 -9 c0 -28 -29 -25 -33 3 -3 19 0 23 15 20 10 -2 18 -12 18 -23z m258 4
c15 0 27 -4 27 -8 0 -5 6 -9 13 -8 35 1 47 -5 47 -23 0 -22 20 -26 50 -10 30
16 105 17 102 2 -1 -7 2 -22 8 -32 9 -17 7 -20 -10 -21 -11 -1 -24 -3 -30 -4
-5 -1 -14 -3 -20 -4 -5 0 -10 -14 -10 -30 0 -16 -7 -34 -15 -41 -8 -7 -15 -18
-15 -25 0 -21 -52 -36 -132 -37 -68 -2 -83 2 -144 33 -48 24 -69 40 -68 52 1
10 -5 17 -16 17 -11 0 -22 12 -28 29 -9 26 -8 29 5 24 12 -5 15 -2 11 13 -4
14 0 20 13 20 12 0 19 -7 19 -18 0 -10 5 -18 11 -18 5 0 7 -6 3 -12 -4 -7 -3
-10 1 -5 5 4 18 -1 29 -12 16 -14 42 -20 105 -24 92 -6 122 2 147 41 l16 25
-33 -7 c-74 -15 -129 -19 -129 -8 0 6 -10 12 -22 14 -13 2 -22 8 -20 13 2 6
12 9 24 7 12 -2 18 0 14 7 -4 6 -16 11 -26 11 -10 0 -22 5 -25 10 -4 6 -11 8
-16 5 -13 -9 -29 4 -23 19 3 9 20 12 57 9 29 -2 64 -4 80 -4z m557 2 c0 -6 -4
-13 -10 -16 -5 -3 -10 1 -10 9 0 9 5 16 10 16 6 0 10 -4 10 -9z m63 -33 l16
-43 -24 30 c-25 30 -32 55 -17 55 5 0 16 -19 25 -42z m-2367 21 c3 -6 0 -15
-7 -20 -13 -7 -28 5 -29 24 0 11 28 8 36 -4z m2174 7 c0 -3 -4 -8 -10 -11 -5
-3 -10 -1 -10 4 0 6 5 11 10 11 6 0 10 -2 10 -4z m467 -28 c-3 -8 -6 -5 -6 6
-1 11 2 17 5 13 3 -3 4 -12 1 -19z m650 16 c-3 -3 -12 -4 -19 -1 -8 3 -5 6 6
6 11 1 17 -2 13 -5z m-2473 -19 c-4 -8 -11 -15 -16 -15 -6 0 -5 6 2 15 7 8 14
15 16 15 2 0 1 -7 -2 -15z m1516 -11 c0 -8 -7 -14 -15 -14 -15 0 -21 21 -9 33
10 9 24 -2 24 -19z m344 -54 l-6 -25 21 24 c12 14 19 32 16 42 -3 9 -2 20 3
23 5 3 9 -10 10 -29 1 -19 -3 -35 -8 -35 -6 0 -10 -7 -10 -15 0 -8 4 -15 10
-15 14 0 7 -103 -8 -108 -7 -2 -12 6 -12 20 0 22 -18 61 -21 46 -1 -5 -3 -12
-4 -18 -1 -5 -3 -16 -4 -22 -2 -7 -6 -4 -10 7 -5 11 -20 22 -37 25 -33 6 -44
39 -19 60 12 10 15 10 15 -5 0 -14 3 -13 19 6 10 13 17 28 14 34 -2 7 1 25 8
41 l12 29 8 -30 c5 -16 7 -41 3 -55z m-2474 62 c0 -4 -9 -13 -21 -20 -19 -12
-19 -11 -9 8 10 19 30 28 30 12z m150 -8 c0 -2 -7 -4 -15 -4 -8 0 -15 4 -15
10 0 5 7 7 15 4 8 -4 15 -8 15 -10z m425 6 c-3 -5 -10 -10 -16 -10 -5 0 -9 5
-9 10 0 6 7 10 16 10 8 0 12 -4 9 -10z m-771 -17 c-5 -5 -12 -12 -16 -18 -4
-6 -8 -2 -8 8 0 9 7 17 17 17 9 0 12 -3 7 -7z m2319 -37 c18 -11 26 -13 20 -5
-15 15 -17 29 -4 29 11 0 22 -43 13 -52 -13 -13 -72 33 -71 55 1 14 3 16 6 6
2 -8 18 -23 36 -33z m297 13 c0 -11 -4 -18 -10 -14 -5 3 -7 12 -3 20 7 21 13
19 13 -6z m-1360 -39 c0 -5 -7 -7 -15 -4 -8 4 -15 8 -15 10 0 2 7 4 15 4 8 0
15 -4 15 -10z m1260 -11 c0 -11 -4 -17 -10 -14 -5 3 -10 13 -10 21 0 8 5 14
10 14 6 0 10 -9 10 -21z m-70 7 c0 -3 -4 -8 -10 -11 -5 -3 -10 -1 -10 4 0 6 5
11 10 11 6 0 10 -2 10 -4z m-2555 -16 c-3 -5 -10 -10 -16 -10 -5 0 -9 5 -9 10
0 6 7 10 16 10 8 0 12 -4 9 -10z m63 -8 c2 -7 -3 -12 -12 -12 -9 0 -16 7 -16
16 0 17 22 14 28 -4z m3329 -34 c-2 -13 -4 -5 -4 17 -1 22 1 32 4 23 2 -10 2
-28 0 -40z m-1057 32 c12 -7 10 -9 -8 -7 -12 0 -22 5 -22 9 0 11 12 10 30 -2z
m-2347 -51 c3 -13 1 -19 -6 -16 -15 5 -22 37 -9 37 5 0 12 -9 15 -21z m197 -9
c0 -5 -9 -11 -19 -15 -20 -6 -22 -42 -1 -37 6 1 9 -2 5 -8 -9 -14 -35 6 -35
27 0 7 -7 16 -15 19 -8 4 -12 11 -9 16 4 7 9 7 13 0 3 -5 15 -6 26 -1 18 7 18
8 2 8 -10 1 -15 6 -12 11 7 12 45 -5 45 -20z m190 10 c0 -9 -7 -17 -15 -17 -8
0 -15 8 -15 17 0 9 7 17 15 17 8 0 15 -8 15 -17z m1890 5 c0 -8 -4 -15 -10
-15 -5 0 -7 7 -4 15 4 8 8 15 10 15 2 0 4 -7 4 -15z m-2313 -17 c-3 -8 -6 -5
-6 6 -1 11 2 17 5 13 3 -3 4 -12 1 -19z m300 -1 c-6 -20 -27 -19 -27 2 0 14 5
19 15 14 9 -3 14 -10 12 -16z m2117 -2 c-4 -8 -8 -15 -10 -15 -2 0 -4 7 -4 15
0 8 4 15 10 15 5 0 7 -7 4 -15z m71 6 c3 -6 -3 -9 -14 -8 -11 0 -17 5 -15 9 7
11 22 10 29 -1z m-2461 -60 c-9 -10 -26 18 -18 30 5 9 9 8 14 -7 4 -10 6 -21
4 -23z m2783 2 c-3 -2 -14 0 -24 7 -16 10 -16 11 0 6 9 -3 17 0 18 7 0 8 2 8
6 -1 3 -7 3 -16 0 -19z m-2247 7 c0 -5 -2 -10 -4 -10 -3 0 -8 5 -11 10 -3 6
-1 10 4 10 6 0 11 -4 11 -10z m3099 -37 l-1 -48 -9 35 c-4 19 -6 41 -4 48 9
25 15 10 14 -35z m-232 -25 c-2 -13 -4 -3 -4 22 0 25 2 35 4 23 2 -13 2 -33 0
-45z m-2897 42 c8 -5 11 -10 5 -10 -5 0 -17 5 -25 10 -8 5 -10 10 -5 10 6 0
17 -5 25 -10z m-500 -21 c0 -18 -2 -19 -15 -9 -15 12 -12 30 6 30 5 0 9 -10 9
-21z m2800 11 c0 -5 -2 -10 -4 -10 -3 0 -8 5 -11 10 -3 6 -1 10 4 10 6 0 11
-4 11 -10z m-2680 -14 c0 -22 -26 -26 -27 -5 -1 11 5 19 13 19 8 0 14 -6 14
-14z m3157 -38 c-3 -8 -6 -5 -6 6 -1 11 2 17 5 13 3 -3 4 -12 1 -19z m-3276
-11 c-13 -13 -26 -3 -16 12 3 6 11 8 17 5 6 -4 6 -10 -1 -17z m920 4 c4 7 11
10 14 7 4 -4 0 -16 -8 -28 -12 -18 -16 -18 -26 -6 -7 8 -9 21 -5 28 6 9 9 9
12 -1 4 -11 6 -11 13 0z m-91 -20 c0 -5 -7 -11 -15 -15 -15 -5 -20 5 -8 17 9
10 23 9 23 -2z m2577 -23 c-3 -7 -5 -2 -5 12 0 14 2 19 5 13 2 -7 2 -19 0 -25z
m220 -5 c-3 -10 -5 -4 -5 12 0 17 2 24 5 18 2 -7 2 -21 0 -30z m-3575 -19 c8
-30 -11 -62 -30 -51 -7 5 -8 52 -3 85 1 2 6 2 13 0 7 -3 15 -17 20 -34z m-63
10 c-7 -9 -9 -18 -3 -22 5 -4 9 -18 10 -31 1 -22 0 -23 -12 -6 -8 11 -21 16
-34 12 -22 -6 -23 -5 -14 18 5 13 8 14 15 3 6 -9 9 -7 9 9 0 12 8 24 18 26 9
3 19 5 21 6 2 0 -2 -6 -10 -15z m328 10 c-3 -3 -12 -4 -19 -1 -8 3 -5 6 6 6
11 1 17 -2 13 -5z m-31 -71 c-12 -12 -34 26 -29 48 6 23 7 23 20 -10 8 -18 12
-36 9 -38z m3321 45 c-3 -8 -6 -5 -6 6 -1 11 2 17 5 13 3 -3 4 -12 1 -19z
m-3293 -20 c-4 -6 -10 -5 -15 3 -14 22 -10 33 6 19 8 -7 12 -17 9 -22z m-179
2 c3 -5 1 -10 -4 -10 -6 0 -11 5 -11 10 0 6 2 10 4 10 3 0 8 -4 11 -10z m3252
-22 c-3 -7 -5 -2 -5 12 0 14 2 19 5 13 2 -7 2 -19 0 -25z m253 7 c0 -8 -4 -17
-10 -20 -6 -4 -10 5 -10 20 0 15 4 24 10 20 6 -3 10 -12 10 -20z m-2927 -16
c-7 -7 -20 -8 -30 -5 -17 7 -17 8 1 22 23 17 48 2 29 -17z m-83 11 c0 -5 -7
-10 -16 -10 -8 0 -12 5 -9 10 3 6 10 10 16 10 5 0 9 -4 9 -10z m-560 -20 c0
-5 -2 -10 -4 -10 -3 0 -8 5 -11 10 -3 6 -1 10 4 10 6 0 11 -4 11 -10z m1850 6
c0 -3 -4 -8 -10 -11 -5 -3 -10 -1 -10 4 0 6 5 11 10 11 6 0 10 -2 10 -4z
m-1960 -27 c0 -6 -4 -7 -10 -4 -5 3 -10 11 -10 16 0 6 5 7 10 4 6 -3 10 -11
10 -16z m280 -9 c4 -3 10 -16 14 -30 7 -24 6 -24 -18 5 -15 17 -26 24 -26 16
0 -8 -3 -12 -6 -9 -3 3 1 16 8 27 8 14 14 17 17 9 2 -7 7 -15 11 -18z m110 15
c0 -8 -4 -15 -10 -15 -5 0 -7 7 -4 15 4 8 8 15 10 15 2 0 4 -7 4 -15z m1348
-1 c40 -9 82 -28 82 -36 0 -11 -18 -10 -25 2 -3 6 -20 10 -37 10 -16 0 -42 10
-56 22 -17 13 -20 19 -9 15 11 -4 31 -10 45 -13z m-1275 -8 c3 -8 0 -17 -8
-19 -17 -7 -25 1 -18 19 7 18 19 18 26 0z m3184 -23 c-3 -10 -5 -4 -5 12 0 17
2 24 5 18 2 -7 2 -21 0 -30z m33 21 c0 -8 -5 -12 -10 -9 -6 4 -8 11 -5 16 9
14 15 11 15 -7z m-2966 -30 c3 -8 2 -12 -4 -9 -6 3 -10 10 -10 16 0 14 7 11
14 -7z m-632 -11 c10 -9 18 -23 18 -31 0 -12 -6 -10 -25 8 -38 35 -31 58 7 23z
m58 7 c0 -5 -2 -10 -4 -10 -3 0 -8 5 -11 10 -3 6 -1 10 4 10 6 0 11 -4 11 -10z
m500 -11 c0 -5 -4 -9 -10 -9 -5 0 -10 7 -10 16 0 8 5 12 10 9 6 -3 10 -10 10
-16z m3037 -51 c-2 -13 -4 -3 -4 22 0 25 2 35 4 23 2 -13 2 -33 0 -45z m-3327
42 c0 -5 -4 -10 -10 -10 -5 0 -10 5 -10 10 0 6 5 10 10 10 6 0 10 -4 10 -10z
m1560 -11 c0 -24 -23 -21 -28 4 -2 10 3 17 12 17 10 0 16 -9 16 -21z m-1373
-11 c-3 -8 -6 -5 -6 6 -1 11 2 17 5 13 3 -3 4 -12 1 -19z m143 12 c0 -5 -4
-10 -10 -10 -5 0 -10 5 -10 10 0 6 5 10 10 10 6 0 10 -4 10 -10z m-610 -15
c10 -12 10 -15 -4 -15 -9 0 -16 7 -16 15 0 8 2 15 4 15 2 0 9 -7 16 -15z m80
-9 c0 -3 -4 -8 -10 -11 -5 -3 -10 -1 -10 4 0 6 5 11 10 11 6 0 10 -2 10 -4z
m220 -6 c0 -5 -7 -10 -15 -10 -8 0 -15 5 -15 10 0 6 7 10 15 10 8 0 15 -4 15
-10z m204 -5 c-4 -8 -8 -15 -10 -15 -2 0 -4 7 -4 15 0 8 4 15 10 15 5 0 7 -7
4 -15z m96 5 c0 -5 -4 -10 -10 -10 -5 0 -10 5 -10 10 0 6 5 10 10 10 6 0 10
-4 10 -10z m2755 -20 c-10 -11 -21 -17 -24 -14 -3 3 3 12 13 20 28 20 32 17
11 -6z m-3345 -24 c7 -9 19 -16 27 -16 8 0 11 -4 8 -10 -16 -26 -63 -1 -78 43
-5 14 -3 16 12 8 10 -6 23 -17 31 -25z m3557 12 c-3 -8 -6 -5 -6 6 -1 11 2 17
5 13 3 -3 4 -12 1 -19z m-3703 -4 c8 -21 8 -24 -3 -24 -5 0 -11 9 -14 20 -6
24 8 27 17 4z m477 -7 c-10 -9 -11 -8 -5 6 3 10 9 15 12 12 3 -3 0 -11 -7 -18z
m-21 -14 c0 -25 -10 -29 -28 -11 -7 7 -12 8 -12 4 0 -5 -7 -3 -15 4 -19 16 -4
28 31 26 18 -1 24 -7 24 -23z m-117 -1 c-2 -10 -11 -19 -18 -19 -8 0 -11 5 -8
10 3 5 -1 13 -8 18 -10 6 -6 9 13 9 20 0 25 -4 21 -18z m197 7 c0 -5 5 -7 10
-4 6 3 10 1 10 -4 0 -6 -9 -11 -20 -11 -11 0 -20 7 -20 15 0 8 5 15 10 15 6 0
10 -5 10 -11z m47 -11 c-3 -8 -6 -5 -6 6 -1 11 2 17 5 13 3 -3 4 -12 1 -19z
m3251 -3 c-3 -3 -9 2 -12 12 -6 14 -5 15 5 6 7 -7 10 -15 7 -18z m-131 -17
c-3 -7 -5 -2 -5 12 0 14 2 19 5 13 2 -7 2 -19 0 -25z m-3521 -62 c15 -16 19
-36 6 -36 -5 0 -14 11 -20 25 -13 28 -8 32 14 11z m-198 -8 c7 -7 12 -16 12
-20 0 -15 -15 -8 -28 12 -13 22 -3 27 16 8z m72 -28 c-6 -11 -15 -20 -20 -20
-6 0 -2 9 7 20 10 11 19 20 21 20 1 0 -2 -9 -8 -20z m185 0 c10 -11 16 -20 13
-20 -3 0 -13 9 -23 20 -10 11 -16 20 -13 20 3 0 13 -9 23 -20z m41 -17 c-10
-10 -19 5 -10 18 6 11 8 11 12 0 2 -7 1 -15 -2 -18z m-112 -19 c4 -11 13 -14
27 -11 16 4 18 3 8 -9 -6 -7 -9 -21 -5 -29 5 -14 2 -14 -23 0 -29 14 -49 45
-30 45 6 0 7 5 4 10 -3 6 -2 10 3 10 6 0 13 -7 16 -16z m3543 -16 c-3 -8 -6
-5 -6 6 -1 11 2 17 5 13 3 -3 4 -12 1 -19z m-3438 -19 c-19 -12 -24 -2 -8 17
9 11 14 13 17 4 3 -7 -2 -16 -9 -21z m51 -16 c0 -13 -4 -23 -10 -23 -5 0 -10
17 -10 38 0 27 3 33 10 22 5 -8 10 -25 10 -37z m3544 -5 c5 -29 3 -44 -6 -50
-24 -15 -31 -8 -24 23 3 17 6 40 6 50 0 36 17 19 24 -23z m-3864 22 c0 -5 -2
-10 -4 -10 -3 0 -8 5 -11 10 -3 6 -1 10 4 10 6 0 11 -4 11 -10z m236 -26 c-5
-13 -10 -14 -18 -6 -6 6 -8 18 -4 28 5 13 10 14 18 6 6 -6 8 -18 4 -28z m319
6 c3 -5 2 -10 -4 -10 -5 0 -13 5 -16 10 -3 6 -2 10 4 10 5 0 13 -4 16 -10z
m-95 -20 c0 -11 -4 -20 -10 -20 -5 0 -10 9 -10 20 0 11 5 20 10 20 6 0 10 -9
10 -20z m-185 -8 c-3 -3 -11 0 -18 7 -9 10 -8 11 6 5 10 -3 15 -9 12 -12z
m-325 -74 c0 -16 -26 4 -37 29 -22 47 -13 60 12 18 14 -22 25 -43 25 -47z m10
51 c0 -5 -4 -9 -10 -9 -5 0 -10 7 -10 16 0 8 5 12 10 9 6 -3 10 -10 10 -16z
m30 -29 c0 -6 11 -15 25 -20 32 -12 32 -30 1 -30 -14 0 -32 10 -40 22 -20 28
-20 38 -1 38 8 0 15 -5 15 -10z m3847 -26 c-3 -3 -12 -4 -19 -1 -8 3 -5 6 6 6
11 1 17 -2 13 -5z m-3623 -10 c25 -10 19 -19 -14 -20 -19 -1 -30 4 -30 12 0
15 18 18 44 8z m376 -14 c0 -5 -4 -10 -10 -10 -5 0 -10 5 -10 10 0 6 5 10 10
10 6 0 10 -4 10 -10z m3266 -17 c-10 -10 -19 5 -10 18 6 11 8 11 12 0 2 -7 1
-15 -2 -18z m-3918 -15 c8 -8 15 -8 25 1 12 9 26 0 76 -49 65 -66 73 -77 41
-60 -11 6 -20 16 -20 22 0 9 -3 9 -12 0 -15 -15 -58 -15 -79 1 -8 7 -24 26
-35 42 -17 27 -17 29 -1 16 14 -11 21 -11 29 -3 9 9 8 12 -3 12 -17 0 -60 29
-43 30 5 0 15 -5 22 -12z m177 2 c3 -5 1 -10 -4 -10 -6 0 -11 5 -11 10 0 6 2
10 4 10 3 0 8 -4 11 -10z m-61 -35 c9 -14 15 -25 13 -25 -2 0 -14 11 -27 25
-13 14 -19 25 -13 25 6 0 18 -11 27 -25z m102 -2 c-7 -7 -26 7 -26 19 0 6 6 6
15 -2 9 -7 13 -15 11 -17z m200 -8 c10 -8 14 -15 7 -15 -6 0 -15 5 -18 10 -4
6 -11 8 -16 5 -5 -4 -9 -1 -9 4 0 15 13 14 36 -4z m179 -3 c-3 -3 -11 0 -18 7
-9 10 -8 11 6 5 10 -3 15 -9 12 -12z m3217 4 c5 4 5 -4 -2 -16 -8 -15 -9 -20
-1 -15 8 4 10 -6 5 -37 -13 -83 -22 -83 -22 2 0 47 2 79 5 72 3 -6 9 -9 15 -6z
m-3629 -48 c6 -22 5 -22 -8 -4 -17 22 -20 40 -6 32 5 -3 11 -16 14 -28z m245
10 c-6 -18 -28 -21 -28 -4 0 9 7 16 16 16 9 0 14 -5 12 -12z m-202 -43 c1 -9
-3 -14 -9 -12 -7 2 -14 14 -15 28 -3 19 -1 22 9 12 7 -7 14 -20 15 -28z m159
-50 c6 -15 5 -17 -4 -9 -6 6 -14 28 -16 50 -4 35 -4 36 4 9 5 -16 12 -39 16
-50z m125 50 c7 -9 8 -15 2 -15 -5 0 -12 7 -16 15 -3 8 -4 15 -2 15 2 0 9 -7
16 -15z m-435 -5 c3 -5 1 -10 -4 -10 -6 0 -11 5 -11 10 0 6 2 10 4 10 3 0 8
-4 11 -10z m-26 -24 c9 -11 9 -15 -1 -19 -7 -3 -1 -6 14 -6 15 -1 30 -5 33
-11 4 -6 -6 -7 -27 -3 -39 7 -34 3 -42 31 -8 25 5 29 23 8z m141 -1 c35 -18
40 -29 9 -20 -18 6 -20 4 -14 -14 4 -15 2 -21 -9 -21 -21 0 -31 21 -15 31 11
7 10 9 -3 9 -10 0 -18 7 -18 15 0 19 13 19 50 0z m150 5 c0 -5 -2 -10 -4 -10
-3 0 -8 5 -11 10 -3 6 -1 10 4 10 6 0 11 -4 11 -10z m85 -10 c3 -5 -1 -10 -9
-10 -9 0 -16 5 -16 10 0 6 4 10 9 10 6 0 13 -4 16 -10z m65 -10 c0 -5 -2 -10
-4 -10 -3 0 -8 5 -11 10 -3 6 -1 10 4 10 6 0 11 -4 11 -10z m-220 -31 c0 -6
-4 -7 -10 -4 -5 3 -10 11 -10 16 0 6 5 7 10 4 6 -3 10 -11 10 -16z m160 7 c0
-3 -4 -8 -10 -11 -5 -3 -10 -1 -10 4 0 6 5 11 10 11 6 0 10 -2 10 -4z m130 -6
c0 -5 -5 -10 -11 -10 -5 0 -7 5 -4 10 3 6 8 10 11 10 2 0 4 -4 4 -10z m-94
-36 c-4 -9 -9 -15 -11 -12 -3 3 -3 13 1 22 4 9 9 15 11 12 3 -3 3 -13 -1 -22z
m-390 6 c17 0 21 -7 22 -40 2 -44 -13 -53 -28 -17 -5 12 -9 16 -9 9 -1 -7 -5
-11 -10 -8 -5 3 -8 -10 -6 -29 4 -45 -19 -47 -34 -4 -14 40 -14 39 4 39 23 0
18 19 -7 30 -19 7 -19 9 -5 9 11 1 15 5 11 13 -5 8 0 9 17 5 13 -4 33 -7 45
-7z m119 -30 c21 -24 16 -31 -24 -36 -24 -3 -31 1 -37 19 -4 12 -12 25 -18 29
-6 4 5 8 25 8 23 0 42 -7 54 -20z m-29 -50 c26 0 32 -3 28 -15 -8 -19 6 -19
32 -1 11 8 26 11 33 7 10 -6 9 -10 -3 -14 -9 -4 -16 -11 -16 -17 0 -14 27 -13
33 3 3 6 6 -2 6 -20 1 -17 -3 -35 -9 -38 -12 -8 -78 26 -113 59 -15 14 -32 26
-38 26 -5 0 -9 15 -8 33 l1 32 10 -27 c8 -23 16 -28 44 -28z m394 29 c0 -11
-4 -17 -10 -14 -5 3 -10 13 -10 21 0 8 5 14 10 14 6 0 10 -9 10 -21z m44 -6
c-4 -10 -8 -24 -8 -32 -1 -19 -26 -27 -26 -8 0 9 7 22 15 31 8 8 15 20 15 27
0 7 3 10 6 6 4 -3 3 -14 -2 -24z m3260 17 c16 -1 11 -6 -18 -20 -22 -11 -47
-20 -56 -20 -27 0 -30 -11 -10 -33 11 -11 17 -23 14 -26 -11 -12 -44 45 -44
78 l0 34 46 -7 c26 -3 56 -6 68 -6z m-3374 -26 c0 -8 -4 -12 -10 -9 -5 3 -10
13 -10 21 0 8 5 12 10 9 6 -3 10 -13 10 -21z m47 -36 c-3 -7 -5 -2 -5 12 0 14
2 19 5 13 2 -7 2 -19 0 -25z m-167 -10 c0 -6 -6 -5 -15 2 -8 7 -15 14 -15 16
0 2 7 1 15 -2 8 -4 15 -11 15 -16z m-247 -3 c18 -13 18 -14 -1 -33 -22 -22
-49 -14 -39 11 4 12 1 15 -11 11 -14 -5 -13 -3 2 10 24 19 26 19 49 1z m347
-6 c0 -6 -4 -7 -10 -4 -5 3 -10 11 -10 16 0 6 5 7 10 4 6 -3 10 -11 10 -16z
m-290 -28 c0 -5 -7 -14 -15 -21 -12 -10 -15 -10 -15 2 0 8 3 18 7 21 9 10 23
9 23 -2z m140 -2 c0 -6 9 -9 20 -6 16 4 18 2 10 -12 -26 -50 -69 -50 -62 -1 4
28 32 44 32 19z m132 5 c3 -3 4 -14 1 -25 -5 -18 -6 -19 -19 -2 -7 10 -14 21
-14 26 0 8 24 10 32 1z m-382 -18 c0 -3 -4 -8 -10 -11 -5 -3 -10 -1 -10 4 0 6
5 11 10 11 6 0 10 -2 10 -4z m3730 -16 c0 -5 -2 -10 -4 -10 -3 0 -8 5 -11 10
-3 6 -1 10 4 10 6 0 11 -4 11 -10z m-3552 -12 c17 -17 15 -39 -3 -32 -8 4 -12
10 -9 15 3 5 0 9 -5 9 -6 0 -11 5 -11 10 0 14 13 13 28 -2z m-68 -8 c0 -5 -4
-10 -10 -10 -5 0 -10 5 -10 10 0 6 5 10 10 10 6 0 10 -4 10 -10z m235 -30 c3
-5 2 -10 -4 -10 -5 0 -13 5 -16 10 -3 6 -2 10 4 10 5 0 13 -4 16 -10z m-155
-20 c0 -5 -12 -10 -26 -10 -14 0 -23 4 -19 10 3 6 15 10 26 10 10 0 19 -4 19
-10z m211 -7 c13 -16 12 -17 -3 -4 -17 13 -22 21 -14 21 2 0 10 -8 17 -17z
m-165 -8 c-8 -8 -17 -15 -20 -15 -3 0 -6 7 -6 15 0 9 9 15 21 15 18 0 19 -2 5
-15z m-156 -36 c0 -18 -4 -28 -10 -24 -5 3 -10 13 -10 21 0 8 -4 14 -10 14
-19 0 -10 16 10 17 16 1 20 -4 20 -28z m110 21 c0 -5 -7 -10 -16 -10 -8 0 -12
5 -9 10 3 6 10 10 16 10 5 0 9 -4 9 -10z m120 -6 c0 -2 -7 -4 -15 -4 -8 0 -15
4 -15 10 0 5 7 7 15 4 8 -4 15 -8 15 -10z m-191 -46 c1 -5 -3 -8 -9 -8 -5 0
-10 12 -9 28 0 24 1 25 9 7 5 -11 9 -23 9 -27z m61 -31 c-1 -41 -3 -48 -11
-34 -12 21 -30 13 -23 -11 5 -14 4 -15 -5 -2 -6 8 -11 23 -11 33 0 14 5 17 20
12 11 -4 20 -2 20 4 0 6 -8 11 -17 11 -14 0 -15 2 -5 9 7 4 12 12 11 17 -3 18
1 25 11 19 6 -3 10 -30 10 -58z m160 43 c-20 -13 -60 -13 -60 0 0 6 17 10 38
10 27 0 33 -3 22 -10z m-115 -10 c-3 -5 -13 -10 -21 -10 -8 0 -14 5 -14 10 0
6 9 10 21 10 11 0 17 -4 14 -10z m43 -22 c18 -18 15 -28 -10 -29 -20 0 -19 -2
10 -16 48 -25 41 -41 -18 -41 -45 0 -50 2 -50 23 0 12 7 28 15 35 8 7 15 19
15 26 0 17 22 18 38 2z m-198 -18 c0 -5 -4 -10 -10 -10 -5 0 -10 5 -10 10 0 6
5 10 10 10 6 0 10 -4 10 -10z m400 0 c1 8 6 4 11 -9 5 -13 7 -26 4 -29 -3 -3
-5 0 -5 6 0 6 -7 9 -15 6 -11 -5 -15 1 -15 17 0 19 2 21 10 9 9 -13 10 -13 10
0z m-52 -45 c12 -12 -24 -25 -65 -23 -40 1 -54 14 -37 31 8 8 94 1 102 -8z
m20 -78 c2 -15 8 -25 13 -22 5 4 9 -1 9 -10 0 -10 -5 -14 -12 -10 -7 4 -6 0 3
-7 10 -8 24 -30 32 -51 15 -35 15 -37 -3 -47 -26 -14 -30 -13 -23 8 6 16 5 16
-13 0 -23 -20 -76 -27 -81 -11 -5 15 34 36 49 27 7 -5 8 -3 3 5 -4 8 -20 11
-36 9 -17 -3 -30 1 -33 8 -6 16 10 28 24 19 6 -3 10 -1 10 4 0 6 -11 11 -24
11 -13 0 -31 3 -39 6 -12 4 -14 0 -10 -14 2 -11 0 -23 -6 -26 -6 -4 -11 -2
-11 3 0 6 -7 11 -16 11 -9 0 -18 9 -21 20 -3 11 -9 20 -13 20 -10 0 -30 57
-23 64 4 3 23 6 44 6 32 0 37 -3 32 -17 -4 -11 -3 -14 5 -9 8 5 12 -1 12 -15
l0 -22 23 24 c13 13 24 26 24 29 0 3 1 9 2 13 0 5 18 7 39 5 32 -3 37 -7 40
-31z m80 6 c0 -5 2 -16 7 -26 4 -10 5 -20 2 -23 -8 -9 -29 35 -22 46 7 12 16
13 13 3z m32 -90 c0 -10 -4 -24 -9 -31 -6 -10 -10 -8 -14 9 -3 12 -4 26 -1 31
9 14 24 9 24 -9z m20 -43 c0 -5 -4 -10 -10 -10 -5 0 -10 5 -10 10 0 6 5 10 10
10 6 0 10 -4 10 -10z m10 -46 c0 -8 -4 -12 -10 -9 -5 3 -10 13 -10 21 0 8 5
12 10 9 6 -3 10 -13 10 -21z m-86 -8 c-4 -18 -1 -27 15 -36 32 -17 25 -30 -9
-19 -16 6 -30 15 -30 20 0 5 -8 9 -19 9 -23 0 -47 25 -31 35 5 3 14 3 20 0 5
-3 18 -1 27 4 28 16 34 13 27 -13z m110 -76 c17 -17 17 -17 -7 -13 -14 3 -34
14 -44 25 -18 20 -17 21 7 13 14 -4 33 -15 44 -25z m-109 -18 c-3 -3 -11 0
-18 7 -9 10 -8 11 6 5 10 -3 15 -9 12 -12z m135 -38 c14 -3 34 -14 45 -26 17
-18 18 -20 3 -15 -11 4 -18 1 -18 -6 -1 -8 -5 -7 -13 3 -7 8 -18 16 -26 18 -8
2 -26 12 -40 24 l-26 21 25 -7 c14 -4 36 -9 50 -12z m815 -36 c88 -29 112 -33
205 -33 58 0 156 4 218 9 61 5 112 6 112 2 0 -4 -7 -18 -16 -31 -9 -13 -12
-30 -8 -36 4 -8 3 -9 -4 -5 -7 4 -12 0 -12 -10 0 -45 -82 -86 -96 -49 -4 8
-10 15 -15 15 -13 0 -11 -34 3 -48 8 -8 5 -14 -15 -21 -15 -6 -27 -15 -27 -21
0 -5 -7 -10 -15 -10 -8 0 -15 5 -15 11 0 5 5 7 10 4 6 -3 10 -3 10 2 0 4 -69
9 -153 10 -270 3 -412 9 -424 16 -6 4 -18 4 -27 1 -10 -4 -16 -1 -16 7 0 19
-58 44 -92 41 -34 -3 -36 13 -9 66 64 125 181 149 386 80z m-780 -228 c3 -5
-3 -10 -14 -10 -12 0 -21 5 -21 10 0 6 6 10 14 10 8 0 18 -4 21 -10z m25 -70
c0 -5 -8 -10 -17 -10 -15 0 -16 2 -3 10 19 12 20 12 20 0z m449 -172 c6 -17 8
-35 3 -40 -4 -4 -13 10 -19 32 -12 47 0 54 16 8z m-9 -94 c0 -2 -9 -4 -20 -4
-11 0 -20 4 -20 9 0 5 9 7 20 4 11 -3 20 -7 20 -9z"/>
<path d="M6478 6388 c-7 -4 -22 -8 -33 -8 -13 0 -31 -19 -52 -54 -18 -30 -33
-58 -33 -64 0 -11 33 -22 68 -22 12 0 22 -4 22 -8 0 -4 21 -14 46 -21 39 -12
54 -12 99 1 45 13 55 13 59 2 3 -8 11 -14 18 -14 13 0 78 68 78 81 0 16 -63
80 -74 76 -6 -2 -36 5 -66 15 -63 22 -114 28 -132 16z m65 -165 c-7 -2 -19 -2
-25 0 -7 3 -2 5 12 5 14 0 19 -2 13 -5z"/>
<path d="M6885 6339 c-27 -4 -66 -13 -86 -20 l-36 -11 29 -32 c97 -106 134
-130 183 -117 15 4 8 8 -25 16 l-45 10 75 3 c41 1 82 5 90 8 27 10 -31 43 -75
44 -50 1 -95 23 -74 36 8 5 37 10 64 10 28 1 58 2 68 3 20 1 23 21 3 21 -8 0
-21 6 -28 13 -18 19 -83 26 -143 16z"/>
<path d="M7106 5961 c-4 -7 -5 -15 -2 -18 9 -9 19 4 14 18 -4 11 -6 11 -12 0z"/>
<path d="M7065 5849 c-4 -6 -5 -12 -2 -15 2 -3 7 2 10 11 7 17 1 20 -8 4z"/>
<path d="M6081 6653 c18 -23 38 -39 43 -35 6 3 20 6 33 7 13 0 31 9 40 20 18
18 17 18 -9 2 -23 -14 -27 -15 -32 -1 -5 14 -8 14 -22 -1 -16 -15 -19 -14 -52
17 l-35 33 34 -42z"/>
<path d="M5910 6631 c0 -5 7 -14 15 -21 12 -10 15 -10 15 3 0 8 -7 17 -15 21
-8 3 -15 2 -15 -3z"/>
<path d="M5650 6602 c-10 -11 -11 -17 -2 -20 7 -2 12 -10 12 -18 0 -17 16 -19
26 -3 3 6 1 15 -6 19 -7 4 -10 12 -6 18 11 18 -8 21 -24 4z"/>
<path d="M5525 6520 c3 -5 8 -10 11 -10 2 0 4 5 4 10 0 6 -5 10 -11 10 -5 0
-7 -4 -4 -10z"/>
<path d="M5360 6486 c0 -2 7 -6 15 -10 8 -3 15 -1 15 4 0 6 -7 10 -15 10 -8 0
-15 -2 -15 -4z"/>
<path d="M5745 6440 c9 -30 13 -35 21 -27 3 3 -2 16 -11 29 l-17 23 7 -25z"/>
<path d="M12710 6410 c0 -5 7 -10 15 -10 8 0 15 5 15 10 0 6 -7 10 -15 10 -8
0 -15 -4 -15 -10z"/>
<path d="M12390 6340 c0 -40 4 -70 10 -70 6 0 10 14 10 30 0 23 5 30 19 30 34
0 51 12 51 34 0 31 -19 46 -57 46 l-33 0 0 -70z m68 28 c3 -13 -3 -18 -22 -18
-20 0 -26 5 -26 21 0 15 5 20 22 17 13 -2 24 -11 26 -20z"/>
<path d="M13008 6392 c-14 -53 23 -144 49 -118 4 4 0 12 -10 17 -22 13 -24 69
-2 69 8 0 15 5 15 10 0 6 -7 10 -15 10 -8 0 -15 7 -15 15 0 21 -17 19 -22 -3z"/>
<path d="M13150 6390 c-41 -41 -8 -120 49 -120 27 0 71 42 71 68 0 59 -79 93
-120 52z m84 -21 c26 -38 -14 -96 -51 -73 -30 19 -38 40 -25 68 15 32 55 35
76 5z"/>
<path d="M12510 6324 c0 -30 5 -54 10 -54 6 0 10 18 10 40 0 27 5 43 15 46 23
9 18 22 -10 22 -24 0 -25 -4 -25 -54z"/>
<path d="M12590 6361 c-15 -30 -12 -56 10 -76 46 -41 116 29 75 75 -23 26 -71
26 -85 1z m69 -18 c11 -21 -3 -53 -23 -53 -21 0 -38 27 -31 50 8 24 40 26 54
3z"/>
<path d="M12710 6311 c0 -46 -4 -71 -12 -74 -7 -2 -10 -8 -6 -12 4 -4 14 -5
23 -2 12 5 15 23 15 82 0 43 -4 75 -10 75 -6 0 -10 -30 -10 -69z"/>
<path d="M12772 6368 c-6 -6 -12 -24 -12 -38 0 -50 62 -79 91 -44 12 15 10 16
-20 9 -24 -5 -36 -3 -42 6 -6 11 2 15 36 19 44 5 44 5 32 30 -14 28 -64 39
-85 18z m63 -18 c4 -6 -5 -10 -19 -10 -14 0 -26 5 -26 10 0 6 9 10 19 10 11 0
23 -4 26 -10z"/>
<path d="M12896 6364 c-20 -20 -20 -43 0 -72 18 -25 56 -29 74 -7 18 21 6 29
-19 13 -17 -11 -23 -10 -37 4 -11 10 -14 23 -9 38 6 19 12 21 41 15 34 -6 48
8 18 19 -27 10 -52 7 -68 -10z"/>
<path d="M13280 6377 c0 -2 7 -27 15 -55 18 -60 40 -68 49 -17 8 41 21 39 30
-6 8 -43 26 -32 47 29 14 41 15 52 5 52 -8 0 -17 -16 -20 -35 -8 -41 -21 -39
-30 6 -8 41 -28 33 -42 -17 l-11 -39 -12 43 c-7 23 -16 42 -21 42 -6 0 -10 -1
-10 -3z"/>
<path d="M13460 6323 c0 -63 18 -72 22 -10 2 34 7 42 23 42 16 0 21 -8 23 -42
2 -29 8 -43 18 -43 17 0 19 45 4 84 -8 22 -15 26 -50 24 l-40 -1 0 -54z"/>
<path d="M13592 6368 c-6 -6 -12 -24 -12 -38 0 -50 62 -79 91 -44 12 15 10 16
-20 9 -24 -5 -36 -3 -42 6 -6 11 2 15 36 19 44 5 44 5 32 30 -14 28 -64 39
-85 18z m63 -18 c4 -6 -5 -10 -19 -10 -14 0 -26 5 -26 10 0 6 9 10 19 10 11 0
23 -4 26 -10z"/>
<path d="M13710 6323 c0 -29 5 -53 10 -53 6 0 10 16 10 35 0 24 6 39 20 47 28
18 25 27 -10 26 -29 -1 -30 -2 -30 -55z"/>
<path d="M13271 6086 c-17 -21 -6 -63 19 -71 34 -11 62 12 58 48 -3 28 -7 32
-34 35 -19 2 -36 -3 -43 -12z"/>
<path d="M12390 6025 c0 -35 0 -35 45 -35 l45 0 0 -150 0 -150 40 0 40 0 0
149 0 150 48 3 c45 3 47 4 50 36 l3 32 -135 0 -136 0 0 -35z"/>
<path d="M13850 5875 l0 -185 40 0 39 0 3 116 3 117 78 -117 c77 -116 77 -116
117 -116 l40 0 0 185 0 185 -40 0 -39 0 -3 -117 -3 -118 -79 118 c-78 115 -80
117 -118 117 l-38 0 0 -185z"/>
<path d="M12761 5972 c-45 -24 -71 -74 -71 -135 0 -90 50 -147 129 -147 26 0
56 7 69 16 20 14 22 14 22 0 0 -12 10 -16 40 -16 l40 0 0 145 0 145 -40 0
c-22 0 -40 -4 -40 -9 0 -6 -16 -3 -35 5 -46 19 -73 18 -114 -4z m123 -73 c54
-43 24 -139 -44 -139 -66 0 -95 86 -45 135 30 30 54 31 89 4z"/>
<path d="M13173 5975 c-18 -8 -33 -10 -33 -5 0 6 -18 10 -40 10 l-40 0 0 -145
0 -145 40 0 40 0 0 94 c0 100 4 108 53 120 24 6 27 11 27 46 0 44 -1 45 -47
25z"/>
<path d="M13475 5971 c-57 -26 -79 -70 -73 -150 4 -53 9 -66 36 -93 26 -27 40
-32 91 -36 50 -4 65 -1 90 18 17 12 38 35 46 51 l16 29 -41 0 c-26 0 -51 -8
-69 -21 -24 -17 -31 -18 -54 -8 -29 13 -40 38 -39 82 2 67 60 99 102 57 13
-13 33 -20 60 -20 l40 0 -13 33 c-9 22 -27 39 -57 55 -53 27 -82 27 -135 3z"/>
<path d="M14290 5972 c-46 -23 -71 -69 -72 -130 0 -61 23 -112 61 -135 36 -21
109 -22 139 -1 21 15 22 14 22 -15 0 -40 -31 -71 -70 -71 -17 0 -39 9 -50 20
-25 25 -90 28 -90 4 0 -73 134 -119 220 -76 60 30 70 64 70 250 l0 162 -39 0
c-22 0 -41 -5 -43 -11 -2 -6 -14 -5 -33 5 -39 21 -72 20 -115 -2z m125 -77
c27 -26 32 -63 14 -98 -16 -30 -28 -37 -66 -37 -64 0 -89 93 -38 138 34 29 60
28 90 -3z"/>
<path d="M15303 5971 c-50 -23 -74 -65 -74 -129 -1 -99 40 -144 136 -150 65
-4 65 -4 106 36 22 23 38 46 34 52 -10 17 -65 11 -92 -10 -14 -11 -33 -20 -42
-20 -23 0 -61 28 -61 45 0 11 22 15 103 17 l102 3 -2 38 c-5 78 -47 123 -123
132 -33 4 -57 0 -87 -14z m111 -67 c27 -27 18 -34 -44 -34 -33 0 -60 3 -60 7
0 3 7 15 17 25 20 22 66 24 87 2z"/>
<path d="M15673 5975 c-18 -8 -33 -10 -33 -5 0 6 -18 10 -40 10 l-40 0 0 -145
0 -145 40 0 40 0 0 95 c0 82 3 98 20 115 26 26 62 26 86 -1 14 -16 19 -40 22
-115 l4 -94 34 0 34 0 0 110 c0 122 -9 149 -61 176 -35 17 -64 17 -106 -1z"/>
<path d="M13270 5835 l0 -145 40 0 40 0 0 145 0 145 -40 0 -40 0 0 -145z"/>
<path d="M14580 5893 c0 -107 13 -156 47 -183 28 -22 100 -27 134 -10 13 7 19
7 19 0 0 -5 18 -10 40 -10 l40 0 0 145 0 145 -40 0 -40 0 0 -91 c0 -109 -8
-129 -55 -129 -52 0 -65 27 -65 132 l0 88 -40 0 -40 0 0 -87z"/>
<path d="M14900 5973 c0 -5 25 -68 55 -141 l55 -132 -30 -66 c-16 -37 -30 -71
-30 -76 0 -5 18 -8 41 -6 l40 3 40 95 c22 52 62 148 89 213 l49 117 -42 0 -43
0 -33 -90 c-18 -49 -36 -88 -40 -86 -3 2 -20 43 -36 90 l-30 86 -42 0 c-24 0
-43 -3 -43 -7z"/>
<path d="M8623 5299 c8 -21 13 -26 15 -14 5 21 -5 45 -17 45 -5 0 -4 -13 2
-31z"/>
<path d="M16072 5290 c0 -14 2 -19 5 -12 2 6 2 18 0 25 -3 6 -5 1 -5 -13z"/>
<path d="M12470 5290 c0 -5 5 -10 10 -10 6 0 10 5 10 10 0 6 -4 10 -10 10 -5
0 -10 -4 -10 -10z"/>
<path d="M12522 5281 c-9 -26 -2 -121 9 -121 5 0 9 20 9 45 0 29 4 45 13 45 8
0 8 3 -2 9 -12 8 -12 12 -2 25 11 14 11 16 -3 16 -9 0 -20 -9 -24 -19z"/>
<path d="M13210 5231 l0 -69 38 2 c50 3 62 12 62 45 0 35 -22 55 -55 49 -21
-4 -25 -1 -25 18 0 13 -4 24 -10 24 -6 0 -10 -30 -10 -69z m78 -20 c-2 -18
-10 -27 -25 -29 -29 -4 -43 36 -18 54 25 19 47 6 43 -25z"/>
<path d="M14300 5276 c0 -23 -3 -24 -35 -19 -31 5 -36 3 -45 -22 -16 -42 9
-76 55 -72 l35 2 0 68 c0 37 -2 67 -5 67 -3 0 -5 -11 -5 -24z m-6 -51 c2 -7
-2 -21 -9 -32 -11 -14 -18 -16 -31 -7 -25 15 -27 29 -9 47 17 17 40 13 49 -8z"/>
<path d="M14530 5290 c0 -5 5 -10 10 -10 6 0 10 5 10 10 0 6 -4 10 -10 10 -5
0 -10 -4 -10 -10z"/>
<path d="M15190 5231 c0 -41 4 -71 10 -71 6 0 10 18 10 39 0 24 5 41 14 44 21
8 36 -13 36 -50 0 -18 5 -33 10 -33 13 0 13 56 0 81 -6 11 -21 19 -35 19 -15
0 -25 6 -25 14 0 8 -4 18 -10 21 -6 4 -10 -20 -10 -64z"/>
<path d="M15361 5235 l-1 -71 37 1 c29 0 40 5 49 24 20 39 3 66 -39 65 -31 -1
-36 2 -40 25 -2 14 -5 -6 -6 -44z m73 -12 c7 -18 -10 -43 -30 -43 -23 0 -36
36 -19 54 18 17 41 12 49 -11z"/>
<path d="M15790 5276 c0 -19 -4 -22 -25 -18 -33 6 -55 -14 -55 -49 0 -33 12
-42 62 -45 l38 -2 0 69 c0 39 -4 69 -10 69 -5 0 -10 -11 -10 -24z m-10 -41
c19 -23 8 -50 -20 -50 -16 0 -26 6 -28 18 -4 18 14 47 28 47 4 0 13 -7 20 -15z"/>
<path d="M16921 5235 l-1 -71 37 1 c29 0 40 5 49 24 20 39 3 66 -39 65 -31 -1
-36 2 -40 25 -2 14 -5 -6 -6 -44z m73 -12 c7 -18 -10 -43 -30 -43 -23 0 -36
36 -19 54 18 17 41 12 49 -11z"/>
<path d="M17390 5290 c0 -5 5 -10 10 -10 6 0 10 5 10 10 0 6 -4 10 -10 10 -5
0 -10 -4 -10 -10z"/>
<path d="M12390 5225 l0 -65 30 0 c17 0 30 5 30 10 0 6 -9 10 -20 10 -18 0
-20 7 -20 55 0 30 -4 55 -10 55 -6 0 -10 -28 -10 -65z"/>
<path d="M15118 5273 c-7 -37 4 -102 19 -108 9 -3 19 -2 22 1 3 4 0 9 -6 11
-7 3 -13 20 -13 38 0 18 6 36 13 38 10 4 10 6 0 6 -7 1 -13 8 -13 16 0 20 -18
19 -22 -2z"/>
<path d="M15598 5273 c-7 -37 4 -102 19 -108 9 -3 19 -2 22 1 3 4 0 9 -6 11
-7 3 -13 20 -13 38 0 18 6 36 13 38 10 4 10 6 0 6 -7 1 -13 8 -13 16 0 20 -18
19 -22 -2z"/>
<path d="M16108 5273 c-7 -37 4 -102 19 -108 9 -3 19 -2 22 1 3 4 0 9 -6 11
-7 3 -13 20 -13 38 0 18 6 36 13 38 10 4 10 6 0 6 -7 1 -13 8 -13 16 0 20 -18
19 -22 -2z"/>
<path d="M17278 5273 c-9 -34 4 -102 19 -108 9 -3 19 -2 22 1 3 4 0 9 -6 11
-7 3 -13 20 -13 38 0 18 6 36 13 38 10 4 10 6 0 6 -7 1 -13 8 -13 16 0 21 -17
19 -22 -2z"/>
<path d="M17439 5273 c-2 -43 4 -89 13 -100 12 -15 38 -17 38 -3 0 6 -7 10
-15 10 -22 0 -20 56 3 69 16 10 16 10 0 11 -10 0 -18 7 -18 15 0 21 -20 19
-21 -2z"/>
<path d="M12470 5210 c0 -27 5 -50 10 -50 6 0 10 23 10 50 0 28 -4 50 -10 50
-5 0 -10 -22 -10 -50z"/>
<path d="M12580 5235 c-5 -14 -7 -32 -4 -40 9 -22 41 -37 64 -30 32 10 23 25
-10 19 -23 -5 -30 -3 -30 10 0 12 9 16 35 16 22 0 35 5 35 13 0 21 -22 37 -52
37 -21 0 -31 -6 -38 -25z m60 0 c11 -13 8 -15 -14 -15 -25 0 -33 10 -19 23 10
11 19 8 33 -8z"/>
<path d="M12740 5208 c0 -26 5 -48 10 -48 6 0 10 18 10 39 0 22 5 41 13 43 25
10 37 -4 37 -43 0 -21 5 -39 10 -39 6 0 10 15 10 33 0 37 15 58 36 50 9 -3 14
-20 14 -44 0 -21 5 -39 11 -39 6 0 9 19 7 48 l-3 47 -77 1 -78 1 0 -49z"/>
<path d="M12942 5248 c-16 -16 -15 -65 0 -74 7 -5 30 -9 50 -10 l38 -2 0 47 0
48 -38 1 c-21 1 -44 -4 -50 -10z m68 -31 c0 -22 -17 -39 -36 -35 -22 4 -32 47
-13 59 16 9 49 -7 49 -24z"/>
<path d="M13050 5255 c0 -3 7 -22 16 -43 9 -23 13 -50 9 -69 -3 -18 -3 -33 0
-33 7 0 65 127 65 141 0 22 -17 6 -30 -28 l-14 -38 -14 38 c-8 20 -19 37 -23
37 -5 0 -9 -2 -9 -5z"/>
<path d="M13340 5241 c-15 -28 -12 -46 8 -64 23 -21 46 -22 61 -3 10 12 7 14
-16 13 -43 -3 -43 18 0 21 41 4 42 5 27 33 -7 12 -21 19 -40 19 -19 0 -33 -7
-40 -19z m60 -6 c11 -13 8 -15 -20 -15 -28 0 -31 2 -20 15 7 8 16 15 20 15 4
0 13 -7 20 -15z"/>
<path d="M13500 5241 c-23 -44 4 -80 58 -79 31 1 32 2 32 48 l0 47 -40 1 c-30
1 -42 -3 -50 -17z m60 -6 c19 -23 8 -50 -20 -50 -16 0 -26 6 -28 18 -4 18 14
47 28 47 4 0 13 -7 20 -15z"/>
<path d="M13670 5208 c0 -26 5 -48 10 -48 6 0 10 18 10 39 0 22 5 41 13 43 25
10 37 -4 37 -43 0 -21 5 -39 10 -39 6 0 10 15 10 33 0 37 15 58 36 50 9 -3 14
-20 14 -44 0 -21 5 -39 11 -39 6 0 9 19 7 48 l-3 47 -77 1 -78 1 0 -49z"/>
<path d="M13871 5246 c-7 -8 -11 -27 -9 -43 4 -38 50 -55 76 -29 16 17 15 17
-20 11 -31 -6 -38 -4 -38 9 0 12 9 16 35 16 22 0 35 5 35 13 0 34 -57 50 -79
23z m59 -17 c0 -5 -11 -9 -25 -9 -26 0 -34 15 -12 23 16 5 37 -3 37 -14z"/>
<path d="M13982 5248 c-16 -16 -15 -65 0 -74 7 -5 30 -9 50 -10 l38 -2 0 47 0
48 -38 1 c-21 1 -44 -4 -50 -10z m58 -13 c19 -23 8 -50 -20 -50 -16 0 -26 6
-28 18 -4 18 14 47 28 47 4 0 13 -7 20 -15z"/>
<path d="M14100 5208 c0 -26 5 -48 10 -48 6 0 10 18 10 39 0 22 5 41 13 43 25
10 37 -4 37 -43 0 -21 5 -39 10 -39 15 0 12 76 -3 88 -7 6 -27 10 -45 10 -32
-1 -32 -2 -32 -50z"/>
<path d="M14351 5246 c-7 -8 -11 -27 -9 -43 4 -36 50 -55 74 -31 15 15 14 16
-16 15 -19 -1 -35 3 -37 11 -3 8 7 12 31 12 23 0 36 5 36 13 0 34 -57 50 -79
23z m59 -17 c0 -5 -11 -9 -25 -9 -26 0 -34 15 -12 23 16 5 37 -3 37 -14z"/>
<path d="M14460 5209 c0 -27 5 -49 10 -49 6 0 10 16 10 36 0 23 6 41 17 49 15
11 14 13 -10 13 -26 0 -27 -3 -27 -49z"/>
<path d="M14530 5210 c0 -27 5 -50 10 -50 6 0 10 23 10 50 0 28 -4 50 -10 50
-5 0 -10 -22 -10 -50z"/>
<path d="M14580 5210 c0 -27 5 -50 10 -50 6 0 10 18 10 39 0 24 5 41 14 44 21
8 36 -13 36 -50 0 -18 5 -33 10 -33 13 0 13 56 0 81 -8 13 -21 19 -45 19 l-35
0 0 -50z"/>
<path d="M14700 5241 c-5 -11 -10 -26 -10 -34 0 -22 37 -50 60 -44 13 3 20 0
20 -9 0 -21 -29 -29 -51 -15 -12 7 -19 7 -19 1 0 -19 46 -33 69 -21 18 10 21
21 21 75 l0 63 -40 1 c-30 1 -42 -3 -50 -17z m60 -6 c19 -23 8 -50 -20 -50
-16 0 -26 6 -28 18 -4 18 14 47 28 47 4 0 13 -7 20 -15z"/>
<path d="M14870 5183 c0 -42 4 -73 10 -73 6 0 10 14 10 30 0 27 3 30 24 24 28
-7 56 18 56 50 0 32 -20 46 -63 44 l-37 -1 0 -74z m70 52 c19 -23 8 -50 -20
-50 -16 0 -26 6 -28 18 -4 18 14 47 28 47 4 0 13 -7 20 -15z"/>
<path d="M15002 5248 c-16 -16 -15 -65 0 -74 7 -5 30 -9 50 -10 l38 -2 0 47 0
48 -38 1 c-21 1 -44 -4 -50 -10z m68 -31 c0 -22 -17 -39 -36 -35 -22 4 -32 47
-13 59 16 9 49 -7 49 -24z"/>
<path d="M15480 5221 c0 -46 14 -60 58 -59 32 1 32 2 32 50 0 56 -17 65 -22
11 -2 -30 -7 -38 -23 -38 -16 0 -21 8 -23 38 -4 49 -22 48 -22 -2z"/>
<path d="M15845 5236 c-13 -19 -14 -29 -6 -45 25 -45 91 -33 91 17 0 54 -56
72 -85 28z m53 5 c21 -13 11 -55 -15 -59 -26 -4 -41 31 -23 53 14 17 20 18 38
6z"/>
<path d="M15960 5210 c0 -27 5 -50 10 -50 6 0 10 18 10 39 0 24 5 41 14 44 21
8 36 -13 36 -50 0 -18 5 -33 10 -33 13 0 13 56 0 81 -8 13 -21 19 -45 19 l-35
0 0 -50z"/>
<path d="M16220 5249 c0 -27 24 -89 35 -89 6 0 16 17 21 38 l10 37 10 -34 c14
-51 28 -48 46 9 9 27 12 50 7 50 -5 0 -12 -14 -16 -30 -8 -44 -20 -45 -27 -4
-9 43 -25 40 -42 -7 l-12 -34 -7 33 c-7 32 -25 54 -25 31z"/>
<path d="M16382 5248 c-28 -28 -2 -88 38 -88 11 0 27 11 36 25 24 36 6 75 -34
75 -15 0 -33 -5 -40 -12z m58 -13 c19 -23 8 -50 -20 -50 -16 0 -26 6 -28 18
-4 18 14 47 28 47 4 0 13 -7 20 -15z"/>
<path d="M16490 5209 c0 -27 5 -49 10 -49 6 0 10 16 10 35 0 22 6 38 15 41 23
9 18 22 -10 22 -23 0 -25 -4 -25 -49z"/>
<path d="M16572 5205 c1 -44 2 -45 5 -12 2 21 11 41 19 44 21 8 17 22 -6 20
-17 -1 -20 -8 -18 -52z"/>
<path d="M16630 5251 c0 -5 7 -25 16 -46 9 -23 13 -49 9 -69 -10 -45 7 -23 38
52 30 71 30 72 18 72 -4 0 -15 -17 -23 -37 l-14 -38 -14 38 c-13 34 -30 50
-30 28z"/>
<path d="M16790 5234 c-16 -41 10 -75 55 -71 34 2 35 3 35 47 l0 45 -40 3
c-36 2 -41 -1 -50 -24z m74 -9 c2 -7 -2 -21 -9 -32 -11 -14 -18 -16 -31 -7
-25 15 -27 29 -9 47 17 17 40 13 49 -8z"/>
<path d="M17045 5236 c-13 -19 -14 -29 -6 -45 25 -45 91 -33 91 17 0 54 -56
72 -85 28z m53 5 c21 -13 11 -55 -15 -59 -26 -4 -41 31 -23 53 14 17 20 18 38
6z"/>
<path d="M17161 5224 c-1 -48 11 -61 57 -61 32 0 32 1 32 49 0 26 -4 48 -10
48 -5 0 -10 -11 -10 -24 0 -37 -10 -56 -30 -56 -14 0 -21 11 -28 43 l-10 42
-1 -41z"/>
<path d="M17390 5210 c0 -27 5 -50 10 -50 6 0 10 23 10 50 0 28 -4 50 -10 50
-5 0 -10 -22 -10 -50z"/>
<path d="M17503 5165 c-9 -25 4 -29 17 -6 7 15 7 21 0 21 -6 0 -13 -7 -17 -15z"/>
<path d="M12650 4960 c0 -40 4 -70 10 -70 6 0 10 15 10 33 0 37 15 58 36 50 9
-3 14 -20 14 -44 0 -21 5 -39 11 -39 6 0 9 19 7 48 -3 46 -4 47 -35 47 -28 0
-33 4 -33 22 0 13 -4 23 -10 23 -6 0 -10 -30 -10 -70z"/>
<path d="M13240 5020 c0 -5 5 -10 10 -10 6 0 10 5 10 10 0 6 -4 10 -10 10 -5
0 -10 -4 -10 -10z"/>
<path d="M13560 5020 c0 -5 5 -10 10 -10 6 0 10 5 10 10 0 6 -4 10 -10 10 -5
0 -10 -4 -10 -10z"/>
<path d="M13930 5020 c0 -5 5 -10 10 -10 6 0 10 5 10 10 0 6 -4 10 -10 10 -5
0 -10 -4 -10 -10z"/>
<path d="M14250 4961 l0 -69 41 2 c42 2 59 17 59 52 0 29 -24 47 -55 42 -21
-4 -25 -1 -25 18 0 13 -4 24 -10 24 -6 0 -10 -30 -10 -69z m70 4 c19 -23 8
-50 -20 -50 -16 0 -26 6 -28 18 -4 18 14 47 28 47 4 0 13 -7 20 -15z"/>
<path d="M14800 4961 c0 -41 4 -71 10 -71 6 0 10 18 10 39 0 24 5 41 14 44 21
8 36 -13 36 -50 0 -18 5 -33 10 -33 13 0 13 56 0 81 -6 11 -21 19 -35 19 -15
0 -25 6 -25 14 0 8 -4 18 -10 21 -6 4 -10 -20 -10 -64z"/>
<path d="M15080 5020 c0 -5 5 -10 10 -10 6 0 10 5 10 10 0 6 -4 10 -10 10 -5
0 -10 -4 -10 -10z"/>
<path d="M16293 4960 c-1 -60 1 -67 7 -36 8 40 28 62 44 46 5 -5 12 -26 17
-47 7 -36 7 -36 6 12 -2 48 -3 50 -34 53 -23 2 -33 9 -36 25 -2 12 -4 -12 -4
-53z"/>
<path d="M16640 5006 c0 -19 -4 -22 -25 -18 -33 6 -55 -14 -55 -49 0 -33 12
-42 62 -45 l38 -2 0 69 c0 39 -4 69 -10 69 -5 0 -10 -11 -10 -24z m-10 -41
c19 -23 8 -50 -20 -50 -16 0 -26 6 -28 18 -4 18 14 47 28 47 4 0 13 -7 20 -15z"/>
<path d="M16970 5020 c0 -5 5 -10 10 -10 6 0 10 5 10 10 0 6 -4 10 -10 10 -5
0 -10 -4 -10 -10z"/>
<path d="M17330 5020 c0 -5 5 -10 10 -10 6 0 10 5 10 10 0 6 -4 10 -10 10 -5
0 -10 -4 -10 -10z"/>
<path d="M12582 4999 c-8 -12 -8 -20 -2 -24 6 -3 10 -22 10 -41 0 -22 6 -37
15 -41 23 -8 33 7 12 18 -20 12 -23 54 -4 66 11 6 10 11 -3 24 -16 15 -18 15
-28 -2z"/>
<path d="M13608 5003 c-9 -34 4 -102 19 -108 9 -3 19 -2 22 1 3 4 0 9 -6 11
-7 3 -13 20 -13 38 0 18 6 36 13 38 10 4 10 6 0 6 -7 1 -13 8 -13 16 0 21 -17
19 -22 -2z"/>
<path d="M13770 4955 c0 -37 4 -65 10 -65 6 0 10 28 10 65 0 37 -4 65 -10 65
-6 0 -10 -28 -10 -65z"/>
<path d="M13818 5003 c-9 -34 4 -102 19 -108 9 -3 19 -2 22 1 3 4 0 9 -6 11
-7 3 -13 20 -13 38 0 18 6 36 13 38 10 4 10 6 0 6 -7 1 -13 8 -13 16 0 21 -17
19 -22 -2z"/>
<path d="M14612 4999 c-8 -12 -8 -20 -2 -24 6 -3 10 -22 10 -41 0 -22 6 -37
15 -41 23 -8 33 7 12 18 -20 12 -23 54 -4 66 11 6 10 11 -3 24 -16 15 -18 15
-28 -2z"/>
<path d="M14729 5003 c-2 -43 4 -89 13 -100 12 -15 38 -17 38 -3 0 6 -7 10
-15 10 -22 0 -20 56 3 69 16 10 16 10 0 11 -10 0 -18 7 -18 15 0 21 -20 19
-21 -2z"/>
<path d="M16099 5003 c-2 -43 4 -89 13 -100 12 -15 38 -17 38 -3 0 6 -7 10
-15 10 -22 0 -20 56 3 69 16 10 16 10 0 11 -10 0 -18 7 -18 15 0 21 -20 19
-21 -2z"/>
<path d="M16218 5003 c-7 -37 4 -102 19 -108 9 -3 19 -2 22 1 3 4 0 9 -6 11
-7 3 -13 20 -13 38 0 18 6 36 13 38 10 4 10 6 0 6 -7 1 -13 8 -13 16 0 20 -18
19 -22 -2z"/>
<path d="M16902 4999 c-8 -12 -8 -20 -2 -24 6 -3 10 -22 10 -41 0 -22 6 -37
15 -41 23 -8 33 7 12 18 -20 12 -23 54 -4 66 11 6 10 11 -3 24 -16 15 -18 15
-28 -2z"/>
<path d="M17262 4999 c-8 -12 -8 -20 -2 -24 6 -3 10 -22 10 -41 0 -22 6 -37
15 -41 23 -8 33 7 12 18 -20 12 -23 54 -4 66 11 6 10 11 -3 24 -16 15 -18 15
-28 -2z"/>
<path d="M12390 4939 c0 -27 5 -49 10 -49 6 0 10 16 10 36 0 23 6 41 17 49 15
11 14 13 -10 13 -26 0 -27 -3 -27 -49z"/>
<path d="M12460 4964 c-16 -41 10 -75 55 -71 34 2 35 3 35 47 l0 45 -40 3
c-36 2 -41 -1 -50 -24z m74 -9 c2 -7 -2 -21 -9 -32 -11 -14 -18 -16 -31 -7
-25 15 -27 29 -9 47 17 17 40 13 49 -8z"/>
<path d="M12781 4976 c-7 -8 -11 -27 -9 -43 4 -38 50 -55 76 -29 16 17 15 17
-20 11 -31 -6 -38 -4 -38 9 0 12 9 16 35 16 22 0 35 5 35 13 0 34 -57 50 -79
23z m59 -17 c0 -5 -11 -9 -25 -9 -26 0 -34 15 -12 23 16 5 37 -3 37 -14z"/>
<path d="M12892 4935 c1 -44 2 -45 5 -12 2 21 11 41 19 44 21 8 17 22 -6 20
-17 -1 -20 -8 -18 -52z"/>
<path d="M13011 4976 c-7 -8 -11 -27 -9 -43 4 -38 50 -55 76 -29 16 17 15 17
-20 11 -31 -6 -38 -4 -38 9 0 12 9 16 35 16 22 0 35 5 35 13 0 34 -57 50 -79
23z m59 -17 c0 -5 -11 -9 -25 -9 -26 0 -34 15 -12 23 16 5 37 -3 37 -14z"/>
<path d="M13120 4940 c0 -27 5 -50 10 -50 6 0 10 18 10 39 0 24 5 41 14 44 21
8 36 -13 36 -50 0 -18 5 -33 10 -33 13 0 13 56 0 81 -8 13 -21 19 -45 19 l-35
0 0 -50z"/>
<path d="M13240 4932 c0 -32 -5 -63 -12 -70 -6 -6 -9 -14 -6 -17 3 -3 13 1 22
10 18 18 23 135 6 135 -6 0 -10 -26 -10 -58z"/>
<path d="M13292 4978 c-28 -28 -2 -88 38 -88 11 0 27 11 36 25 24 36 6 75 -34
75 -15 0 -33 -5 -40 -12z m58 -13 c19 -23 8 -50 -20 -50 -16 0 -26 6 -28 18
-4 18 14 47 28 47 4 0 13 -7 20 -15z"/>
<path d="M13411 4943 c16 -37 18 -52 10 -71 -13 -28 -14 -32 -2 -32 5 0 16 17
24 38 9 20 23 54 31 75 9 20 12 37 7 37 -5 0 -16 -17 -24 -37 l-15 -38 -15 38
c-9 20 -21 37 -26 37 -6 0 -1 -21 10 -47z"/>
<path d="M13560 4940 c0 -27 5 -50 10 -50 6 0 10 23 10 50 0 28 -4 50 -10 50
-5 0 -10 -22 -10 -50z"/>
<path d="M13930 4940 c0 -27 5 -50 10 -50 6 0 10 23 10 50 0 28 -4 50 -10 50
-5 0 -10 -22 -10 -50z"/>
<path d="M13987 4983 c-14 -14 -6 -34 18 -45 14 -6 25 -15 25 -21 0 -5 -11 -6
-25 -3 -14 4 -25 2 -25 -4 0 -12 45 -24 59 -15 21 12 12 44 -14 51 -14 3 -25
12 -25 20 0 17 12 18 28 2 13 -13 27 -5 17 11 -7 12 -48 15 -58 4z"/>
<path d="M14132 4978 c-16 -16 -15 -65 0 -74 7 -5 30 -9 50 -10 l38 -2 0 47 0
48 -38 1 c-21 1 -44 -4 -50 -10z m58 -13 c19 -23 8 -50 -20 -50 -16 0 -26 6
-28 18 -4 18 14 47 28 47 4 0 13 -7 20 -15z"/>
<path d="M14382 4978 c-28 -28 -2 -88 38 -88 11 0 27 11 36 25 24 36 6 75 -34
75 -15 0 -33 -5 -40 -12z m58 -13 c19 -23 8 -50 -20 -50 -16 0 -26 6 -28 18
-4 18 14 47 28 47 4 0 13 -7 20 -15z"/>
<path d="M14490 4959 c0 -50 16 -69 55 -67 35 1 35 1 35 50 0 56 -17 65 -22
11 -2 -30 -7 -38 -23 -38 -16 0 -21 8 -23 38 -4 44 -22 50 -22 6z"/>
<path d="M14920 4971 c-15 -28 -12 -46 8 -64 23 -21 46 -22 61 -3 10 12 7 14
-16 13 -43 -3 -43 18 0 21 41 4 42 5 27 33 -7 12 -21 19 -40 19 -19 0 -33 -7
-40 -19z m60 -6 c11 -13 8 -15 -20 -15 -28 0 -31 2 -20 15 7 8 16 15 20 15 4
0 13 -7 20 -15z"/>
<path d="M15080 4932 c0 -32 -5 -63 -12 -70 -6 -6 -9 -14 -6 -17 3 -3 13 1 22
10 18 18 23 135 6 135 -6 0 -10 -26 -10 -58z"/>
<path d="M15131 4971 c-16 -29 -14 -46 9 -66 41 -37 102 17 73 64 -16 25 -69
26 -82 2z m59 -6 c19 -23 8 -50 -20 -50 -16 0 -26 6 -28 18 -4 18 14 47 28 47
4 0 13 -7 20 -15z"/>
<path d="M15243 4949 c7 -50 9 -53 52 -54 l35 -2 -1 51 c-1 28 -3 42 -6 31 -2
-11 -6 -30 -9 -42 -2 -14 -12 -23 -23 -23 -21 0 -31 19 -31 56 0 13 -5 24 -11
24 -8 0 -10 -14 -6 -41z"/>
<path d="M15360 4939 c0 -27 5 -49 10 -49 6 0 10 16 10 35 0 22 6 38 15 41 23
9 18 22 -10 22 -23 0 -25 -4 -25 -49z"/>
<path d="M15441 4938 c1 -52 1 -52 9 -14 8 40 28 62 44 46 5 -5 12 -26 17 -47
7 -36 7 -36 6 12 l-2 50 -37 3 -38 3 1 -53z"/>
<path d="M15561 4976 c-7 -8 -11 -27 -9 -43 4 -38 50 -55 76 -29 16 17 15 17
-20 11 -31 -6 -38 -4 -38 9 0 12 9 16 35 16 22 0 35 5 35 13 0 34 -57 50 -79
23z m59 -17 c0 -5 -11 -9 -25 -9 -26 0 -34 15 -12 23 16 5 37 -3 37 -14z"/>
<path d="M15660 4985 c0 -3 7 -22 16 -43 9 -23 13 -50 9 -69 -3 -18 -3 -33 0
-33 7 0 65 127 65 141 0 22 -17 6 -30 -28 l-14 -38 -14 38 c-8 20 -19 37 -23
37 -5 0 -9 -2 -9 -5z"/>
<path d="M15860 4939 c0 -27 5 -49 10 -49 6 0 10 15 10 33 0 37 15 58 36 50 9
-3 14 -20 14 -44 0 -21 5 -39 11 -39 6 0 9 19 7 48 l-3 47 -42 1 -43 2 0 -49z"/>
<path d="M15992 4978 c-20 -20 -14 -66 9 -79 27 -14 64 1 72 30 11 44 -49 81
-81 49z m63 -26 c7 -20 -19 -47 -39 -39 -19 7 -21 53 -3 60 18 6 35 -2 42 -21z"/>
<path d="M16411 4976 c-7 -8 -11 -27 -9 -43 4 -36 50 -55 74 -31 15 15 14 16
-16 15 -19 -1 -35 3 -37 11 -3 8 7 12 31 12 23 0 36 5 36 13 0 34 -57 50 -79
23z m59 -17 c0 -5 -11 -9 -25 -9 -26 0 -34 15 -12 23 16 5 37 -3 37 -14z"/>
<path d="M16690 4965 c-5 -14 -7 -32 -4 -40 9 -22 41 -37 64 -30 32 10 23 25
-10 19 -23 -5 -30 -3 -30 10 0 12 9 16 35 16 22 0 35 5 35 13 0 21 -22 37 -52
37 -21 0 -31 -6 -38 -25z m60 0 c11 -13 8 -15 -14 -15 -25 0 -33 10 -19 23 10
11 19 8 33 -8z"/>
<path d="M16807 4983 c-15 -15 -5 -35 23 -44 40 -14 39 -33 -1 -25 -27 5 -30
4 -19 -9 16 -19 44 -19 60 0 15 18 6 33 -28 46 -19 7 -22 13 -14 21 9 9 15 9
24 0 17 -17 29 -15 22 3 -6 15 -55 21 -67 8z"/>
<path d="M16970 4940 c0 -27 5 -50 10 -50 6 0 10 23 10 50 0 28 -4 50 -10 50
-5 0 -10 -22 -10 -50z"/>
<path d="M17020 4938 c0 -26 5 -48 10 -48 6 0 10 18 10 39 0 22 5 41 13 43 25
10 37 -4 37 -43 0 -21 5 -39 10 -39 15 0 12 76 -3 88 -7 6 -27 10 -45 10 -32
-1 -32 -2 -32 -50z"/>
<path d="M17140 4971 c-23 -44 4 -80 58 -79 31 1 32 2 32 48 l0 47 -40 1 c-30
1 -42 -3 -50 -17z m60 -6 c19 -23 8 -50 -20 -50 -16 0 -26 6 -28 18 -4 18 14
47 28 47 4 0 13 -7 20 -15z"/>
<path d="M17330 4940 c0 -27 5 -50 10 -50 6 0 10 23 10 50 0 28 -4 50 -10 50
-5 0 -10 -22 -10 -50z"/>
<path d="M17385 4966 c-13 -19 -14 -29 -6 -45 25 -45 91 -33 91 17 0 54 -56
72 -85 28z m53 5 c21 -13 11 -55 -15 -59 -26 -4 -41 31 -23 53 14 17 20 18 38
6z"/>
<path d="M17500 4940 c0 -27 5 -50 10 -50 6 0 10 18 10 39 0 24 5 41 14 44 21
8 36 -13 36 -50 0 -18 5 -33 10 -33 13 0 13 56 0 81 -8 13 -21 19 -45 19 l-35
0 0 -50z"/>
<path d="M17667 4983 c-15 -15 -5 -35 23 -44 40 -14 39 -33 -1 -25 -27 5 -30
4 -19 -9 16 -19 44 -19 60 0 15 18 6 33 -28 46 -19 7 -22 13 -14 21 9 9 15 9
24 0 17 -17 29 -15 22 3 -6 15 -55 21 -67 8z"/>
<path d="M17772 4978 c-20 -20 -14 -66 9 -79 27 -14 64 1 72 30 11 44 -49 81
-81 49z m63 -26 c7 -20 -19 -47 -39 -39 -19 7 -21 53 -3 60 18 6 35 -2 42 -21z"/>
<path d="M13670 4900 c0 -5 5 -10 10 -10 6 0 10 5 10 10 0 6 -4 10 -10 10 -5
0 -10 -4 -10 -10z"/>
<path d="M15767 4890 c-3 -11 -1 -20 4 -20 5 0 9 2 9 4 0 2 3 11 6 20 3 9 2
16 -4 16 -5 0 -12 -9 -15 -20z"/>
<path d="M12720 4691 c0 -41 4 -71 10 -71 6 0 10 28 10 64 0 36 -4 68 -10 71
-6 4 -10 -20 -10 -64z"/>
<path d="M13240 4690 c0 -40 4 -70 10 -70 6 0 10 30 10 70 0 40 -4 70 -10 70
-6 0 -10 -30 -10 -70z"/>
<path d="M13290 4690 c0 -40 4 -70 10 -70 6 0 10 30 10 70 0 40 -4 70 -10 70
-6 0 -10 -30 -10 -70z"/>
<path d="M13463 4690 c-1 -60 1 -67 7 -36 8 40 28 62 44 46 5 -5 12 -26 17
-47 7 -36 7 -36 6 12 -2 48 -3 50 -34 53 -23 2 -33 9 -36 25 -2 12 -4 -12 -4
-53z"/>
<path d="M15430 4690 c0 -40 4 -70 10 -70 6 0 10 30 10 70 0 40 -4 70 -10 70
-6 0 -10 -30 -10 -70z"/>
<path d="M16277 4753 c-4 -3 -7 -14 -7 -22 0 -12 -9 -16 -32 -16 -26 0 -34 -5
-42 -27 -13 -38 14 -68 60 -66 l34 1 0 69 c0 68 -1 74 -13 61z m-17 -58 c19
-23 8 -50 -20 -50 -16 0 -26 6 -28 18 -4 18 14 47 28 47 4 0 13 -7 20 -15z"/>
<path d="M16886 4736 c-10 -15 -12 -27 -6 -31 6 -3 11 -25 12 -48 l1 -42 4 40
c3 22 9 45 15 52 8 9 7 13 -3 13 -10 0 -10 3 -1 12 7 7 12 16 12 20 0 16 -18
7 -34 -16z"/>
<path d="M17370 4750 c0 -5 5 -10 10 -10 6 0 10 5 10 10 0 6 -4 10 -10 10 -5
0 -10 -4 -10 -10z"/>
<path d="M17582 4741 c-9 -26 -2 -121 9 -121 5 0 9 20 9 45 0 29 4 45 13 45 8
0 8 3 -2 9 -12 8 -12 12 -2 25 11 14 11 16 -3 16 -9 0 -20 -9 -24 -19z"/>
<path d="M13388 4733 c-9 -34 4 -102 19 -108 9 -3 19 -2 22 1 3 4 0 9 -6 11
-7 3 -13 20 -13 38 0 18 6 36 13 38 10 4 10 6 0 6 -7 1 -13 8 -13 16 0 21 -17
19 -22 -2z"/>
<path d="M13698 4733 c-7 -37 4 -102 19 -108 9 -3 19 -2 22 1 3 4 0 9 -6 11
-7 3 -13 20 -13 38 0 18 6 36 13 38 10 4 10 6 0 6 -7 1 -13 8 -13 16 0 20 -18
19 -22 -2z"/>
<path d="M17419 4733 c-2 -43 4 -89 13 -100 12 -15 38 -17 38 -3 0 6 -7 10
-15 10 -22 0 -20 56 3 69 16 10 16 10 0 11 -10 0 -18 7 -18 15 0 21 -20 19
-21 -2z"/>
<path d="M12390 4701 c-15 -28 -12 -46 8 -64 23 -21 46 -22 61 -3 10 12 7 14
-16 13 -43 -3 -43 18 0 21 41 4 42 5 27 33 -7 12 -21 19 -40 19 -19 0 -33 -7
-40 -19z m60 -6 c11 -13 8 -15 -20 -15 -28 0 -31 2 -20 15 7 8 16 15 20 15 4
0 13 -7 20 -15z"/>
<path d="M12500 4714 c0 -3 5 -14 11 -25 8 -16 7 -26 -6 -45 -8 -13 -11 -24
-6 -24 6 0 15 8 20 18 10 16 12 16 26 -2 19 -25 30 -14 13 13 -11 17 -11 25 0
42 17 27 6 39 -12 13 -14 -18 -15 -18 -21 -1 -7 16 -25 24 -25 11z"/>
<path d="M12590 4643 c0 -42 4 -73 10 -73 6 0 10 14 10 31 0 26 3 29 20 24 31
-10 60 12 60 44 0 37 -18 51 -63 49 l-37 -1 0 -74z m78 28 c-2 -18 -10 -27
-25 -29 -29 -4 -43 36 -18 54 25 19 47 6 43 -25z"/>
<path d="M12771 4701 c-16 -29 -14 -46 9 -66 41 -37 102 17 73 64 -16 25 -69
26 -82 2z m59 -6 c19 -23 8 -50 -20 -50 -16 0 -26 6 -28 18 -4 18 14 47 28 47
4 0 13 -7 20 -15z"/>
<path d="M12892 4665 c1 -44 2 -45 5 -12 2 21 11 41 19 44 21 8 17 22 -6 20
-17 -1 -20 -8 -18 -52z"/>
<path d="M12961 4706 c-7 -8 -11 -27 -9 -43 4 -36 50 -55 74 -31 15 15 14 16
-16 15 -19 -1 -35 3 -37 11 -3 8 7 12 31 12 23 0 36 5 36 13 0 34 -57 50 -79
23z m59 -17 c0 -5 -11 -9 -25 -9 -26 0 -34 15 -12 23 16 5 37 -3 37 -14z"/>
<path d="M13120 4701 c-23 -44 4 -80 58 -79 31 1 32 2 32 48 l0 47 -40 1 c-30
1 -42 -3 -50 -17z m60 -6 c19 -23 8 -50 -20 -50 -16 0 -26 6 -28 18 -4 18 14
47 28 47 4 0 13 -7 20 -15z"/>
<path d="M13582 4708 c-16 -16 -15 -65 0 -74 7 -5 30 -9 50 -10 l38 -2 0 47 0
48 -38 1 c-21 1 -44 -4 -50 -10z m58 -13 c19 -23 8 -50 -20 -50 -16 0 -26 6
-28 18 -4 18 14 47 28 47 4 0 13 -7 20 -15z"/>
<path d="M13821 4706 c-7 -8 -11 -27 -9 -43 4 -36 50 -55 74 -31 15 15 14 16
-17 15 -30 -2 -34 1 -37 24 -3 29 23 48 42 29 15 -15 26 -12 20 5 -8 19 -58
20 -73 1z"/>
<path d="M13932 4708 c-28 -28 -2 -88 38 -88 11 0 27 11 36 25 24 36 6 75 -34
75 -15 0 -33 -5 -40 -12z m58 -13 c19 -23 8 -50 -20 -50 -16 0 -26 6 -28 18
-4 18 14 47 28 47 4 0 13 -7 20 -15z"/>
<path d="M14040 4669 c0 -27 5 -49 10 -49 6 0 10 15 10 33 0 37 15 58 36 50 9
-3 14 -20 14 -44 0 -21 5 -39 10 -39 6 0 10 13 10 28 0 16 6 36 13 45 17 24
38 7 48 -39 7 -38 7 -38 6 11 l-2 50 -77 1 -78 1 0 -48z"/>
<path d="M14241 4706 c-7 -8 -11 -27 -9 -43 4 -36 50 -55 74 -31 15 15 14 16
-16 15 -19 -1 -35 3 -37 11 -3 8 7 12 31 12 23 0 36 5 36 13 0 34 -57 50 -79
23z m59 -17 c0 -5 -11 -9 -25 -9 -26 0 -34 15 -12 23 16 5 37 -3 37 -14z"/>
<path d="M14352 4707 c-14 -16 -4 -32 26 -41 35 -11 27 -29 -10 -21 -31 7 -32
6 -16 -10 11 -12 24 -16 43 -11 34 9 30 36 -9 54 -20 10 -25 17 -17 25 7 7 15
6 26 -3 17 -14 31 -8 20 9 -9 15 -50 14 -63 -2z"/>
<path d="M14501 4673 c16 -37 18 -52 10 -71 -13 -28 -14 -32 -2 -32 5 0 16 17
24 38 9 20 23 54 31 75 9 20 12 37 7 37 -5 0 -16 -17 -24 -37 l-15 -38 -15 38
c-9 20 -21 37 -26 37 -6 0 -1 -21 10 -47z"/>
<path d="M14605 4696 c-13 -19 -14 -29 -6 -45 25 -45 91 -33 91 17 0 54 -56
72 -85 28z m53 5 c21 -13 11 -55 -15 -59 -26 -4 -41 31 -23 53 14 17 20 18 38
6z"/>
<path d="M14721 4684 c-1 -48 11 -61 57 -61 32 0 32 1 32 49 0 26 -4 48 -10
48 -5 0 -10 -11 -10 -24 0 -37 -10 -56 -30 -56 -14 0 -21 11 -28 43 l-10 42
-1 -41z"/>
<path d="M14840 4669 c0 -27 5 -49 10 -49 6 0 10 16 10 36 0 23 6 41 17 49 15
11 14 13 -10 13 -26 0 -27 -3 -27 -49z"/>
<path d="M14950 4709 c0 -27 24 -89 35 -89 6 0 16 17 21 38 l10 37 10 -34 c14
-51 28 -48 46 9 9 27 12 50 7 50 -5 0 -12 -14 -16 -30 -8 -44 -20 -45 -27 -4
-9 43 -25 40 -42 -7 l-12 -34 -7 33 c-7 32 -25 54 -25 31z"/>
<path d="M15110 4701 c-23 -44 4 -80 58 -79 31 1 32 2 32 48 l0 47 -40 1 c-30
1 -42 -3 -50 -17z m60 -6 c19 -23 8 -50 -20 -50 -16 0 -26 6 -28 18 -4 18 14
47 28 47 4 0 13 -7 20 -15z"/>
<path d="M15241 4673 c16 -37 18 -52 10 -71 -13 -28 -14 -32 -2 -32 5 0 16 17
24 38 9 20 23 54 31 75 9 20 12 37 7 37 -5 0 -16 -17 -24 -37 l-15 -38 -15 38
c-9 20 -21 37 -26 37 -6 0 -1 -21 10 -47z"/>
<path d="M15480 4701 c-15 -28 -12 -46 8 -64 23 -21 46 -22 61 -3 10 12 7 14
-16 13 -43 -3 -43 18 0 21 41 4 42 5 27 33 -7 12 -21 19 -40 19 -19 0 -33 -7
-40 -19z m60 -6 c11 -13 8 -15 -20 -15 -28 0 -31 2 -20 15 7 8 16 15 20 15 4
0 13 -7 20 -15z"/>
<path d="M15590 4694 c-16 -41 10 -75 55 -71 34 2 35 3 35 47 l0 45 -40 3
c-36 2 -41 -1 -50 -24z m74 -9 c2 -7 -2 -21 -9 -32 -11 -14 -18 -16 -31 -7
-25 15 -27 29 -9 47 17 17 40 13 49 -8z"/>
<path d="M15722 4665 c1 -44 2 -45 5 -12 2 21 11 41 19 44 21 8 17 22 -6 20
-17 -1 -20 -8 -18 -52z"/>
<path d="M15790 4670 c0 -27 5 -50 10 -50 6 0 10 18 10 39 0 24 5 41 14 44 21
8 36 -13 36 -50 0 -18 5 -33 10 -33 13 0 13 56 0 81 -8 13 -21 19 -45 19 l-35
0 0 -50z"/>
<path d="M15962 4708 c-16 -16 -15 -65 0 -74 7 -5 30 -9 50 -10 l38 -2 0 47 0
48 -38 1 c-21 1 -44 -4 -50 -10z m68 -31 c0 -22 -17 -39 -36 -35 -22 4 -32 47
-13 59 16 9 49 -7 49 -24z"/>
<path d="M16080 4670 c0 -27 5 -50 10 -50 6 0 10 18 10 39 0 24 5 41 14 44 21
8 36 -13 36 -50 0 -18 5 -33 10 -33 13 0 13 56 0 81 -8 13 -21 19 -45 19 l-35
0 0 -50z"/>
<path d="M16370 4694 c-16 -41 12 -78 51 -70 27 5 29 4 19 -14 -11 -21 -35
-26 -45 -10 -8 13 -25 13 -25 0 0 -19 46 -33 69 -21 18 10 21 21 21 74 l0 62
-40 3 c-36 2 -41 -1 -50 -24z m74 -9 c2 -7 -2 -21 -9 -32 -11 -14 -18 -16 -31
-7 -25 15 -27 29 -9 47 17 17 40 13 49 -8z"/>
<path d="M16502 4665 c1 -44 2 -45 5 -12 2 21 11 41 19 44 21 8 17 22 -6 20
-17 -1 -20 -8 -18 -52z"/>
<path d="M16572 4708 c-28 -28 -2 -88 38 -88 11 0 27 11 36 25 24 36 6 75 -34
75 -15 0 -33 -5 -40 -12z m58 -13 c19 -23 8 -50 -20 -50 -16 0 -26 6 -28 18
-4 18 14 47 28 47 4 0 13 -7 20 -15z"/>
<path d="M16686 4673 c8 -25 16 -48 18 -51 10 -9 24 9 31 40 l8 33 10 -37 c14
-51 32 -48 46 8 12 45 8 76 -5 38 -18 -58 -21 -60 -29 -21 -9 47 -32 48 -41 2
-7 -40 -19 -38 -27 5 -4 16 -11 30 -16 30 -5 0 -3 -21 5 -47z"/>
<path d="M16952 4665 c1 -44 2 -45 5 -12 2 21 11 41 19 44 21 8 17 22 -6 20
-17 -1 -20 -8 -18 -52z"/>
<path d="M17022 4708 c-28 -28 -2 -88 38 -88 11 0 27 11 36 25 24 36 6 75 -34
75 -15 0 -33 -5 -40 -12z m58 -13 c19 -23 8 -50 -20 -50 -16 0 -26 6 -28 18
-4 18 14 47 28 47 4 0 13 -7 20 -15z"/>
<path d="M17130 4669 c0 -27 5 -49 10 -49 6 0 10 15 10 33 0 37 15 58 36 50 9
-3 14 -20 14 -44 0 -21 5 -39 10 -39 6 0 10 13 10 28 0 16 6 36 13 45 17 24
38 7 48 -39 7 -38 7 -38 6 11 l-2 50 -77 1 -78 1 0 -48z"/>
<path d="M17370 4670 c0 -27 5 -50 10 -50 6 0 10 23 10 50 0 28 -4 50 -10 50
-5 0 -10 -22 -10 -50z"/>
<path d="M17641 4701 c-16 -29 -14 -46 9 -66 41 -37 102 17 73 64 -16 25 -69
26 -82 2z m59 -6 c19 -23 8 -50 -20 -50 -16 0 -26 6 -28 18 -4 18 14 47 28 47
4 0 13 -7 20 -15z"/>
<path d="M17762 4665 c1 -44 2 -45 5 -12 2 21 11 41 19 44 21 8 17 22 -6 20
-17 -1 -20 -8 -18 -52z"/>
<path d="M15333 4625 c-9 -25 4 -29 17 -6 7 15 7 21 0 21 -6 0 -13 -7 -17 -15z"/>
<path d="M17480 4618 c0 -19 2 -20 10 -8 13 19 13 30 0 30 -5 0 -10 -10 -10
-22z"/>
<path d="M12460 4421 c0 -41 4 -71 10 -71 6 0 10 18 10 39 0 24 5 41 14 44 21
8 36 -13 36 -50 0 -18 5 -33 10 -33 13 0 13 56 0 81 -6 11 -21 19 -35 19 -15
0 -25 6 -25 14 0 8 -4 18 -10 21 -6 4 -10 -20 -10 -64z"/>
<path d="M12570 4480 c0 -5 5 -10 10 -10 6 0 10 5 10 10 0 6 -4 10 -10 10 -5
0 -10 -4 -10 -10z"/>
<path d="M12770 4480 c0 -5 5 -10 10 -10 6 0 10 5 10 10 0 6 -4 10 -10 10 -5
0 -10 -4 -10 -10z"/>
<path d="M13750 4420 c0 -40 4 -70 10 -70 6 0 10 30 10 70 0 40 -4 70 -10 70
-6 0 -10 -30 -10 -70z"/>
<path d="M13963 4420 c-1 -60 1 -67 7 -36 8 40 28 62 44 46 5 -5 12 -26 17
-47 7 -36 7 -36 6 12 -2 48 -3 50 -34 53 -23 2 -33 9 -36 25 -2 12 -4 -12 -4
-53z"/>
<path d="M12388 4463 c-7 -37 4 -102 19 -108 9 -3 19 -2 22 1 3 4 0 9 -6 11
-7 3 -13 20 -13 38 0 18 6 36 13 38 10 4 10 6 0 6 -7 1 -13 8 -13 16 0 20 -18
19 -22 -2z"/>
<path d="M12583 4400 c0 -30 2 -43 4 -27 2 15 2 39 0 55 -2 15 -4 2 -4 -28z"/>
<path d="M12627 4443 c-15 -15 -5 -35 23 -44 40 -14 39 -33 -1 -25 -27 5 -30
4 -19 -9 16 -19 44 -19 60 0 15 18 6 33 -28 46 -19 7 -22 13 -14 21 9 9 15 9
24 0 17 -17 29 -15 22 3 -6 15 -55 21 -67 8z"/>
<path d="M12770 4385 c0 -37 -4 -65 -10 -65 -5 0 -10 -5 -10 -10 0 -7 6 -7 20
0 17 9 20 21 20 75 0 37 -4 65 -10 65 -6 0 -10 -28 -10 -65z"/>
<path d="M12825 4426 c-13 -19 -14 -29 -6 -45 25 -45 91 -33 91 17 0 54 -56
72 -85 28z m53 5 c21 -13 11 -55 -15 -59 -26 -4 -41 31 -23 53 14 17 20 18 38
6z"/>
<path d="M12941 4414 c-1 -48 11 -61 57 -61 32 0 32 1 32 49 0 26 -4 48 -10
48 -5 0 -10 -11 -10 -24 0 -37 -10 -56 -30 -56 -14 0 -21 11 -28 43 l-10 42
-1 -41z"/>
<path d="M13062 4395 c1 -44 2 -45 5 -12 2 21 11 41 19 44 21 8 17 22 -6 20
-17 -1 -20 -8 -18 -52z"/>
<path d="M13130 4400 c0 -27 5 -50 10 -50 6 0 10 18 10 39 0 24 5 41 14 44 21
8 36 -13 36 -50 0 -18 5 -33 10 -33 13 0 13 56 0 81 -8 13 -21 19 -45 19 l-35
0 0 -50z"/>
<path d="M13250 4431 c-15 -28 -12 -46 8 -64 23 -21 46 -22 61 -3 10 12 7 14
-16 13 -43 -3 -43 18 0 21 41 4 42 5 27 33 -7 12 -21 19 -40 19 -19 0 -33 -7
-40 -19z m60 -6 c11 -13 8 -15 -20 -15 -28 0 -31 2 -20 15 7 8 16 15 20 15 4
0 13 -7 20 -15z"/>
<path d="M13350 4447 c0 -3 8 -25 19 -49 11 -27 15 -50 10 -63 -11 -30 -10
-40 2 -28 18 18 68 143 58 143 -5 0 -16 -17 -25 -37 l-16 -38 -12 34 c-7 19
-18 37 -24 39 -7 2 -12 1 -12 -1z"/>
<path d="M13522 4438 c-28 -28 -2 -88 38 -88 11 0 27 11 36 25 24 36 6 75 -34
75 -15 0 -33 -5 -40 -12z m58 -13 c19 -23 8 -50 -20 -50 -16 0 -26 6 -28 18
-4 18 14 47 28 47 4 0 13 -7 20 -15z"/>
<path d="M13630 4399 c0 -27 5 -49 10 -49 6 0 10 15 10 33 0 37 15 58 36 50 9
-3 14 -20 14 -44 0 -21 5 -39 11 -39 6 0 9 19 7 48 l-3 47 -42 1 -43 2 0 -49z"/>
<path d="M13790 4447 c0 -3 8 -25 19 -49 11 -27 15 -50 10 -63 -11 -30 -10
-40 2 -28 18 18 68 143 58 143 -5 0 -16 -17 -25 -37 l-16 -38 -12 34 c-7 19
-18 37 -24 39 -7 2 -12 1 -12 -1z"/>
<path d="M14082 4438 c-16 -16 -15 -65 0 -74 7 -5 30 -9 50 -10 l38 -2 0 47 0
48 -38 1 c-21 1 -44 -4 -50 -10z m58 -13 c19 -23 8 -50 -20 -50 -16 0 -26 6
-28 18 -4 18 14 47 28 47 4 0 13 -7 20 -15z"/>
<path d="M14200 4373 c0 -42 4 -73 10 -73 6 0 10 14 10 30 0 27 3 30 24 24 28
-7 56 18 56 50 0 32 -20 46 -63 44 l-37 -1 0 -74z m70 52 c19 -23 8 -50 -20
-50 -16 0 -26 6 -28 18 -4 18 14 47 28 47 4 0 13 -7 20 -15z"/>
<path d="M14332 4370 c0 -41 3 -61 5 -44 4 28 7 32 35 30 37 -1 62 33 48 68
-6 17 -16 21 -49 21 l-41 1 2 -76z m72 43 c7 -18 -10 -43 -30 -43 -23 0 -36
36 -19 54 18 17 41 12 49 -11z"/>
<path d="M14450 4431 c-15 -28 -12 -46 8 -64 23 -21 46 -22 61 -3 10 12 7 14
-16 13 -43 -3 -43 18 0 21 41 4 42 5 27 33 -7 12 -21 19 -40 19 -19 0 -33 -7
-40 -19z m60 -6 c11 -13 8 -15 -20 -15 -28 0 -31 2 -20 15 7 8 16 15 20 15 4
0 13 -7 20 -15z"/>
<path d="M14560 4399 c0 -27 5 -49 10 -49 6 0 10 15 10 33 0 37 15 58 36 50 9
-3 14 -20 14 -44 0 -21 5 -39 11 -39 6 0 9 19 7 48 l-3 47 -42 1 -43 2 0 -49z"/>
<path d="M14687 4443 c-14 -14 -6 -34 18 -45 14 -6 25 -15 25 -21 0 -5 -11 -6
-25 -3 -14 4 -25 2 -25 -4 0 -12 45 -24 59 -15 20 12 11 42 -15 53 -14 7 -22
17 -19 23 5 7 11 6 21 -2 16 -13 30 -6 19 10 -7 12 -48 15 -58 4z"/>
<path d="M14831 4431 c-16 -29 -14 -46 9 -66 41 -37 102 17 73 64 -16 25 -69
26 -82 2z m59 -6 c19 -23 8 -50 -20 -50 -16 0 -26 6 -28 18 -4 18 14 47 28 47
4 0 13 -7 20 -15z"/>
<path d="M14951 4398 c1 -52 1 -52 9 -14 8 40 28 62 44 46 5 -5 12 -26 17 -47
7 -36 7 -36 6 12 l-2 50 -37 3 -38 3 1 -53z"/>
<path d="M15071 4436 c-7 -8 -11 -27 -9 -43 4 -36 50 -55 74 -31 15 15 14 16
-17 15 -30 -2 -34 1 -37 24 -3 29 23 48 42 29 15 -15 26 -12 20 5 -8 19 -58
20 -73 1z"/>
<path d="M15181 4436 c-7 -8 -11 -27 -9 -43 4 -36 50 -55 74 -31 15 15 14 16
-16 15 -19 -1 -35 3 -37 11 -3 8 7 12 31 12 23 0 36 5 36 13 0 34 -57 50 -79
23z m59 -17 c0 -5 -11 -9 -25 -9 -26 0 -34 15 -12 23 16 5 37 -3 37 -14z"/>
<path d="M15285 4360 c4 -6 11 -8 16 -5 14 9 11 15 -7 15 -8 0 -12 -5 -9 -10z"/>
<path d="M4950 4010 c0 -5 5 -10 10 -10 6 0 10 5 10 10 0 6 -4 10 -10 10 -5 0
-10 -4 -10 -10z"/>
<path d="M8150 4015 c0 -5 5 -17 10 -25 5 -8 10 -10 10 -5 0 6 -5 17 -10 25
-5 8 -10 11 -10 5z"/>
<path d="M5070 3940 c0 -5 6 -9 13 -7 6 1 12 -5 12 -13 0 -16 23 -35 32 -27 2
3 0 14 -6 25 -8 15 -8 22 2 25 6 3 -3 6 -20 6 -18 1 -33 -3 -33 -9z"/>
<path d="M7929 3916 c7 -17 5 -25 -10 -34 -22 -14 -32 -15 -25 -4 2 4 1 14 -5
22 -6 11 -9 6 -9 -17 0 -37 -11 -40 -55 -17 -37 19 -122 27 -131 12 -5 -7 -2
-9 7 -4 8 4 6 1 -4 -6 -10 -7 -28 -21 -40 -31 -12 -10 -23 -14 -25 -8 -4 11
-122 -26 -122 -39 0 -4 -6 -8 -12 -7 -7 0 -26 -1 -43 -2 -28 -2 -29 -3 -8 -11
26 -10 21 -40 -6 -40 -14 -1 -13 -3 3 -15 19 -15 19 -15 -2 -15 -13 0 -22 -6
-22 -15 0 -8 -5 -15 -11 -15 -5 0 -7 5 -3 11 4 7 1 10 -6 7 -7 -2 -17 -14 -21
-27 -6 -15 -5 -20 3 -15 19 12 -4 -19 -29 -40 -16 -12 -22 -24 -18 -37 4 -11
2 -19 -4 -19 -6 0 -11 -6 -11 -14 0 -7 -9 -16 -21 -19 -14 -4 -18 -10 -13 -18
5 -8 2 -11 -8 -7 -8 4 -21 2 -29 -3 -11 -6 -11 -11 -2 -20 10 -10 7 -17 -15
-31 -16 -11 -21 -18 -12 -18 13 0 13 -2 1 -9 -8 -5 -24 -6 -37 -1 -17 7 -23 5
-27 -11 -3 -10 -14 -19 -24 -19 -10 0 -24 -5 -31 -12 -9 -9 -15 -9 -24 0 -16
16 -41 16 -32 0 5 -8 1 -7 -10 2 -16 13 -20 12 -31 -3 -8 -12 -15 -14 -20 -8
-14 23 -25 9 -25 -31 l1 -43 17 30 c16 29 17 29 20 7 3 -18 8 -22 25 -17 12 3
5 -4 -16 -15 -21 -11 -42 -18 -47 -15 -6 3 -16 3 -22 -2 -7 -4 -19 -8 -26 -9
-22 -4 -27 -13 -14 -26 9 -9 12 -9 12 0 0 7 5 12 12 12 8 0 6 -6 -4 -17 -13
-13 -20 -14 -31 -4 -18 14 -127 12 -128 -3 -1 -6 -1 -15 0 -19 1 -5 -3 -6 -8
-3 -5 4 -14 -1 -19 -10 -6 -10 -16 -15 -25 -11 -11 4 -14 2 -10 -9 4 -10 -2
-14 -21 -14 -15 0 -29 -7 -32 -15 -4 -8 -15 -15 -25 -15 -16 0 -18 -3 -9 -19
15 -29 13 -34 -17 -26 -23 5 -25 4 -14 -9 9 -11 10 -16 2 -16 -7 0 -9 -9 -5
-26 4 -17 2 -29 -7 -35 -30 -18 9 -24 149 -23 485 5 962 200 1324 543 103 98
212 227 198 236 -15 9 -1 27 16 21 9 -3 14 2 14 15 0 19 -1 19 -32 3 -18 -9
-36 -22 -40 -28 -5 -6 -8 -2 -8 11 0 12 5 25 10 28 6 3 10 14 9 23 0 14 -2 14
-6 2 -6 -14 -50 -60 -58 -60 -2 0 -3 9 -2 20 1 11 5 20 10 20 4 0 5 5 2 10 -4
7 -17 3 -33 -9 -15 -10 -38 -21 -52 -25 -25 -6 -25 -6 -2 5 12 7 22 20 22 31
0 10 3 17 8 16 4 -2 18 5 32 15 20 14 22 19 11 26 -9 6 -21 3 -34 -10 -23 -21
-36 -17 -17 6 10 13 9 15 -8 15 -12 0 -24 -4 -27 -10 -10 -16 -45 -12 -39 4 3
8 1 17 -5 21 -16 10 -13 23 7 28 16 4 16 5 0 6 -10 0 -27 -8 -38 -19 -23 -23
-45 -27 -37 -6 3 8 -1 17 -8 20 -11 4 -12 0 -6 -18z m61 -26 c0 -5 -7 -10 -16
-10 -8 0 -12 5 -9 10 3 6 10 10 16 10 5 0 9 -4 9 -10z m-40 -25 c0 -8 -2 -15
-4 -15 -2 0 -6 7 -10 15 -3 8 -1 15 4 15 6 0 10 -7 10 -15z m-423 -97 c-3 -8
-6 -5 -6 6 -1 11 2 17 5 13 3 -3 4 -12 1 -19z m-23 -6 c3 -5 -1 -9 -9 -9 -8 0
-12 4 -9 9 3 4 7 8 9 8 2 0 6 -4 9 -8z m-314 -376 c0 -2 -7 -7 -16 -10 -8 -3
-12 -2 -9 4 6 10 25 14 25 6z m-393 -172 c-3 -3 -12 -4 -19 -1 -8 3 -5 6 6 6
11 1 17 -2 13 -5z"/>
<path d="M5055 3910 c3 -5 10 -10 16 -10 5 0 9 5 9 10 0 6 -7 10 -16 10 -8 0
-12 -4 -9 -10z"/>
<path d="M5170 3841 c0 -5 7 -11 14 -14 10 -4 13 -1 9 9 -6 15 -23 19 -23 5z"/>
<path d="M5215 3839 c-4 -6 -5 -12 -2 -15 2 -3 7 2 10 11 7 17 1 20 -8 4z"/>
<path d="M7146 3825 c-7 -18 34 -38 59 -29 24 10 19 37 -5 29 -12 -4 -27 -2
-34 4 -10 9 -15 8 -20 -4z"/>
<path d="M5230 3811 c0 -11 26 -22 34 -14 12 12 5 23 -14 23 -11 0 -20 -4 -20
-9z"/>
<path d="M5200 3800 c0 -5 5 -10 10 -10 6 0 10 5 10 10 0 6 -4 10 -10 10 -5 0
-10 -4 -10 -10z"/>
<path d="M5275 3784 c-8 -13 -11 -24 -5 -24 5 0 10 5 10 10 0 6 10 8 23 5 17
-5 24 -2 24 9 0 26 -35 26 -52 0z"/>
<path d="M7005 3800 c-3 -5 -1 -10 4 -10 6 0 11 5 11 10 0 6 -2 10 -4 10 -3 0
-8 -4 -11 -10z"/>
<path d="M7278 3798 c7 -7 12 -21 12 -31 0 -16 5 -18 27 -12 39 9 41 14 13 35
-28 22 -72 28 -52 8z"/>
<path d="M6820 3783 c0 -8 10 -11 29 -7 25 5 32 2 45 -24 9 -17 25 -33 36 -37
11 -3 20 -13 20 -21 0 -8 4 -14 9 -14 5 0 7 -8 4 -19 -5 -21 39 -61 69 -61 10
0 55 23 99 51 74 48 93 67 69 70 -20 3 -25 4 -38 12 -7 5 -21 5 -32 2 -11 -4
-20 -2 -20 4 0 6 -3 10 -7 9 -14 -3 -157 33 -169 43 -17 14 -114 7 -114 -8z"/>
<path d="M5345 3730 c-4 -6 6 -10 22 -10 22 0 25 2 13 10 -19 12 -27 12 -35 0z"/>
<path d="M5292 3704 c-19 -21 -5 -36 29 -29 20 5 38 1 56 -10 25 -16 26 -16
20 0 -4 9 -7 19 -7 21 0 2 -9 4 -20 4 -11 0 -20 5 -20 11 0 6 -9 8 -21 4 -15
-5 -19 -4 -15 4 10 16 -7 13 -22 -5z"/>
<path d="M5427 3713 c-4 -6 0 -13 8 -17 8 -3 17 0 21 6 4 6 3 8 -4 4 -5 -3
-12 -1 -14 6 -3 8 -6 9 -11 1z"/>
<path d="M5158 3693 c7 -3 16 -2 19 1 4 3 -2 6 -13 5 -11 0 -14 -3 -6 -6z"/>
<path d="M5160 3672 c0 -5 7 -13 16 -16 10 -4 14 -1 12 6 -5 15 -28 23 -28 10z"/>
<path d="M5455 3651 c-6 -11 9 -23 19 -14 9 9 7 23 -3 23 -6 0 -12 -4 -16 -9z"/>
<path d="M5500 3650 c-13 -8 -12 -10 3 -10 9 0 17 5 17 10 0 12 -1 12 -20 0z"/>
<path d="M5355 3640 c-3 -5 -1 -10 4 -10 6 0 11 5 11 10 0 6 -2 10 -4 10 -3 0
-8 -4 -11 -10z"/>
<path d="M5370 3615 c-8 -10 -9 -15 -2 -15 6 0 9 -7 5 -16 -3 -9 0 -20 8 -25
23 -15 30 -10 18 12 -6 12 -9 30 -6 40 6 23 -6 25 -23 4z"/>
<path d="M5591 3498 c2 -2 16 -13 31 -26 23 -21 26 -22 25 -5 -2 18 -20 31
-46 32 -8 1 -12 0 -10 -1z"/>
<path d="M5465 3380 c3 -5 11 -10 16 -10 6 0 7 5 4 10 -3 6 -11 10 -16 10 -6
0 -7 -4 -4 -10z"/>
<path d="M6399 3095 c-1 -11 -2 -26 -2 -32 1 -7 -3 -10 -9 -7 -5 3 -6 15 -2
26 4 15 2 19 -7 16 -8 -3 -13 -17 -12 -32 1 -14 -3 -26 -8 -26 -6 0 -7 -5 -3
-11 4 -7 -1 -9 -12 -7 -11 2 -18 11 -16 21 4 23 -10 21 -26 -4 -16 -25 -14
-28 30 -35 29 -5 36 -2 46 18 11 21 12 21 7 1 -8 -29 2 -33 92 -39 98 -6 96 4
-3 15 -6 0 -11 8 -12 16 -1 8 -3 22 -4 30 -1 8 -9 15 -19 15 -10 0 -22 12 -27
28 -9 22 -11 24 -13 7z"/>
<path d="M6427 3089 c7 -7 15 -10 18 -7 3 3 -2 9 -12 12 -14 6 -15 5 -6 -5z"/>
</g>
</svg>
